tb.vcd
$date
	Sun Oct 12 14:29:04 2025
$end
$version
	Icarus Verilog
$end
$timescale
	1ps
$end
$scope module tb_x_calculate $end
$var wire 16 ! xQ2_out [15:0] $end
$var wire 16 " xQ1_out [15:0] $end
$var wire 16 # xI2_out [15:0] $end
$var wire 16 $ xI1_out [15:0] $end
$var wire 1 % done $end
$var reg 16 & H_in_i [15:0] $end
$var reg 16 ' H_in_r [15:0] $end
$var reg 1 ( H_in_valid $end
$var reg 16 ) Y_in_i [15:0] $end
$var reg 16 * Y_in_r [15:0] $end
$var reg 1 + Y_in_valid $end
$var reg 1 , clk $end
$var reg 4 - q_index [3:0] $end
$var reg 1 . rst $end
$var reg 1 / start $end
$scope module dut $end
$var wire 16 0 GA1_rd_data_i [15:0] $end
$var wire 16 1 GA1_rd_data_r [15:0] $end
$var wire 16 2 H_in_i [15:0] $end
$var wire 16 3 H_in_r [15:0] $end
$var wire 1 ( H_in_valid $end
$var wire 16 4 Y_in_i [15:0] $end
$var wire 16 5 Y_in_r [15:0] $end
$var wire 1 + Y_in_valid $end
$var wire 1 , clk $end
$var wire 1 6 load_H_done $end
$var wire 4 7 q_index [3:0] $end
$var wire 1 . rst $end
$var wire 1 / start_new_q $end
$var wire 16 8 y_rd_data_i [15:0] $end
$var wire 16 9 y_rd_data_r [15:0] $end
$var wire 3 : y_rd_addr [2:0] $end
$var wire 1 ; load_Y_done $end
$var wire 2 < k_counter [1:0] $end
$var wire 16 = inversDh [15:0] $end
$var wire 2 > i_counter [1:0] $end
$var wire 1 ? hq_valid $end
$var wire 16 @ hq_r [15:0] $end
$var wire 16 A hq_i [15:0] $end
$var wire 1 B hq_done $end
$var wire 1 C g_row_valid $end
$var wire 3 D g_rd_addr [2:0] $end
$var wire 1 E g_done $end
$var wire 1 F div_ovr $end
$var wire 16 G dh_in_r [15:0] $end
$var wire 16 H dh_in_i [15:0] $end
$var wire 1 I all_16_hq_done $end
$var wire 16 J Xi1 [15:0] $end
$var wire 16 K Gb2_c1_r [15:0] $end
$var wire 16 L Gb2_c1_i [15:0] $end
$var wire 16 M Gb2_c0_r [15:0] $end
$var wire 16 N Gb2_c0_i [15:0] $end
$var wire 16 O Gb1_c1_r [15:0] $end
$var wire 16 P Gb1_c1_i [15:0] $end
$var wire 16 Q Gb1_c0_r [15:0] $end
$var wire 16 R Gb1_c0_i [15:0] $end
$var wire 16 S Ga2_c1_r [15:0] $end
$var wire 16 T Ga2_c1_i [15:0] $end
$var wire 16 U Ga2_c0_r [15:0] $end
$var wire 16 V Ga2_c0_i [15:0] $end
$var wire 16 W Ga1_c1_r [15:0] $end
$var wire 16 X Ga1_c1_i [15:0] $end
$var wire 16 Y Ga1_c0_r [15:0] $end
$var wire 16 Z Ga1_c0_i [15:0] $end
$var wire 16 [ GA1_r [15:0] $end
$var wire 16 \ GA1_i [15:0] $end
$var wire 1 ] GA1_done_calc $end
$var wire 1 ^ Dh_result_valid $end
$var wire 16 _ Dh_out [15:0] $end
$var reg 3 ` g_count [2:0] $end
$var reg 2 a load_col_cnt [1:0] $end
$var reg 2 b load_row_cnt [1:0] $end
$var reg 2 c next_state [1:0] $end
$var reg 1 % q_done $end
$var reg 1 d start_hq_calc $end
$var reg 2 e state [1:0] $end
$var reg 16 f xI1_out [15:0] $end
$var reg 16 g xI2_out [15:0] $end
$var reg 16 h xQ1_out [15:0] $end
$var reg 16 i xQ2_out [15:0] $end
$var reg 3 j y_count [2:0] $end
$scope module dh_calc_inst $end
$var wire 1 , clk $end
$var wire 16 k in_im [15:0] $end
$var wire 16 l in_real [15:0] $end
$var wire 1 m internal_clear $end
$var wire 1 . rst $end
$var wire 16 n product_r [15:0] $end
$var wire 16 o product_i [15:0] $end
$var wire 1 p ovr_multr $end
$var wire 1 q ovr_multi $end
$var wire 17 r SoP [16:0] $end
$var wire 1 ? Dh_en $end
$var reg 16 s Dh_out [15:0] $end
$var reg 1 ^ Dh_result_valid $end
$var reg 3 t dh_count [2:0] $end
$var reg 35 u dh_reg [34:0] $end
$scope module qmult_im $end
$var wire 16 v i_multiplicand [15:0] $end
$var wire 16 w i_multiplier [15:0] $end
$var wire 16 x temp_multiplicand [15:0] $end
$var wire 16 y temp_meltiplier [15:0] $end
$var wire 32 z r_result [31:0] $end
$var wire 16 { o_result [15:0] $end
$var reg 1 | is_signed $end
$var reg 1 q ovr $end
$var reg 16 } r_RetVal [15:0] $end
$var reg 16 ~ temp_RetVal [15:0] $end
$upscope $end
$scope module qmult_real $end
$var wire 16 !" i_multiplicand [15:0] $end
$var wire 16 "" i_multiplier [15:0] $end
$var wire 16 #" temp_multiplicand [15:0] $end
$var wire 16 $" temp_meltiplier [15:0] $end
$var wire 32 %" r_result [31:0] $end
$var wire 16 &" o_result [15:0] $end
$var reg 1 '" is_signed $end
$var reg 1 p ovr $end
$var reg 16 (" r_RetVal [15:0] $end
$var reg 16 )" temp_RetVal [15:0] $end
$upscope $end
$upscope $end
$scope module g_matrix_inst $end
$var wire 16 *" Hq_in_i [15:0] $end
$var wire 16 +" Hq_in_r [15:0] $end
$var wire 1 , clk $end
$var wire 16 ," hq_i0 [15:0] $end
$var wire 16 -" hq_i1 [15:0] $end
$var wire 16 ." hq_r0 [15:0] $end
$var wire 16 /" hq_r1 [15:0] $end
$var wire 1 . rst $end
$var wire 1 ? Hq_in_valid $end
$var reg 1 C G_row_valid $end
$var reg 16 0" Ga1_c0_i [15:0] $end
$var reg 16 1" Ga1_c0_r [15:0] $end
$var reg 16 2" Ga1_c1_i [15:0] $end
$var reg 16 3" Ga1_c1_r [15:0] $end
$var reg 16 4" Ga2_c0_i [15:0] $end
$var reg 16 5" Ga2_c0_r [15:0] $end
$var reg 16 6" Ga2_c1_i [15:0] $end
$var reg 16 7" Ga2_c1_r [15:0] $end
$var reg 16 8" Gb1_c0_i [15:0] $end
$var reg 16 9" Gb1_c0_r [15:0] $end
$var reg 16 :" Gb1_c1_i [15:0] $end
$var reg 16 ;" Gb1_c1_r [15:0] $end
$var reg 16 <" Gb2_c0_i [15:0] $end
$var reg 16 =" Gb2_c0_r [15:0] $end
$var reg 16 >" Gb2_c1_i [15:0] $end
$var reg 16 ?" Gb2_c1_r [15:0] $end
$var reg 1 E done $end
$var reg 3 @" load_counter [2:0] $end
$var reg 2 A" next_state [1:0] $end
$var reg 2 B" state [1:0] $end
$var reg 2 C" stream_counter [1:0] $end
$upscope $end
$scope module hq_calc_inst $end
$var wire 16 D" H_in_i [15:0] $end
$var wire 16 E" H_in_r [15:0] $end
$var wire 1 F" H_in_valid $end
$var wire 1 , clk $end
$var wire 1 G" mac_clear $end
$var wire 4 H" q_index [3:0] $end
$var wire 1 . rst $end
$var wire 1 d start $end
$var wire 1 I" mac_result_valid $end
$var wire 16 J" mac_result_r [15:0] $end
$var wire 16 K" mac_result_i [15:0] $end
$var reg 16 L" Hq_out_i [15:0] $end
$var reg 16 M" Hq_out_r [15:0] $end
$var reg 1 ? Hq_out_valid $end
$var reg 1 I all_16_hq_done $end
$var reg 1 B hq_one_matrix_done $end
$var reg 2 N" i_counter [1:0] $end
$var reg 1 O" j_counter $end
$var reg 2 P" k_counter [1:0] $end
$var reg 2 Q" load_col_cnt [1:0] $end
$var reg 2 R" load_row_cnt [1:0] $end
$var reg 1 S" mac_en $end
$var reg 4 T" next_state [3:0] $end
$var reg 4 U" q_counter_reg [3:0] $end
$var reg 16 V" s_data_i [15:0] $end
$var reg 16 W" s_data_r [15:0] $end
$var reg 4 X" state [3:0] $end
$scope module c_mac_inst $end
$var wire 1 , clk $end
$var wire 16 Y" in_ai [15:0] $end
$var wire 16 Z" in_ar [15:0] $end
$var wire 16 [" in_bi [15:0] $end
$var wire 16 \" in_br [15:0] $end
$var wire 1 G" mac_clear $end
$var wire 1 S" mac_en $end
$var wire 1 . rst $end
$var wire 1 ]" product_valid $end
$var wire 16 ^" product_r [15:0] $end
$var wire 16 _" product_i [15:0] $end
$var wire 1 `" mac_rs_valid $end
$var reg 6 a" data_valid_pipe [5:0] $end
$var reg 2 b" mac_counter [1:0] $end
$var reg 16 c" mac_i_out [15:0] $end
$var reg 32 d" mac_i_reg [31:0] $end
$var reg 32 e" mac_i_tmp [31:0] $end
$var reg 16 f" mac_r_out [15:0] $end
$var reg 32 g" mac_r_reg [31:0] $end
$var reg 32 h" mac_r_tmp [31:0] $end
$var reg 1 I" mac_result_valid $end
$scope module cmult_inst $end
$var wire 16 i" ai [15:0] $end
$var wire 16 j" ar [15:0] $end
$var wire 16 k" bi [15:0] $end
$var wire 16 l" br [15:0] $end
$var wire 1 , clk $end
$var wire 16 m" pi [15:0] $end
$var wire 16 n" pr [15:0] $end
$var wire 1 . rst $end
$var wire 16 o" tmp_multr [15:0] $end
$var wire 16 p" tmp_multi [15:0] $end
$var wire 16 q" tmp_mult0 [15:0] $end
$var wire 1 r" ovr_multr $end
$var wire 1 s" ovr_multi $end
$var wire 1 t" ovr_mult0 $end
$var reg 16 u" addcommon [15:0] $end
$var reg 16 v" addi [15:0] $end
$var reg 16 w" addr [15:0] $end
$var reg 16 x" ai_d [15:0] $end
$var reg 16 y" ai_dd [15:0] $end
$var reg 16 z" ai_ddd [15:0] $end
$var reg 16 {" ai_dddd [15:0] $end
$var reg 16 |" ar_d [15:0] $end
$var reg 16 }" ar_dd [15:0] $end
$var reg 16 ~" ar_ddd [15:0] $end
$var reg 16 !# ar_dddd [15:0] $end
$var reg 16 "# bi_d [15:0] $end
$var reg 16 ## bi_dd [15:0] $end
$var reg 16 $# bi_ddd [15:0] $end
$var reg 16 %# br_d [15:0] $end
$var reg 16 &# br_dd [15:0] $end
$var reg 16 '# br_ddd [15:0] $end
$var reg 16 (# common [15:0] $end
$var reg 16 )# commonr1 [15:0] $end
$var reg 16 *# commonr2 [15:0] $end
$var reg 16 +# mult0 [15:0] $end
$var reg 16 ,# multi [15:0] $end
$var reg 16 -# multr [15:0] $end
$var reg 16 .# pi_int [15:0] $end
$var reg 16 /# pr_int [15:0] $end
$scope module qmult_common $end
$var wire 16 0# i_multiplicand [15:0] $end
$var wire 16 1# i_multiplier [15:0] $end
$var wire 16 2# o_result [15:0] $end
$var wire 16 3# temp_multiplicand [15:0] $end
$var wire 16 4# temp_meltiplier [15:0] $end
$var wire 32 5# r_result [31:0] $end
$var reg 1 6# is_signed $end
$var reg 1 t" ovr $end
$var reg 16 7# r_RetVal [15:0] $end
$var reg 16 8# temp_RetVal [15:0] $end
$upscope $end
$scope module qmult_imag $end
$var wire 16 9# i_multiplicand [15:0] $end
$var wire 16 :# i_multiplier [15:0] $end
$var wire 16 ;# o_result [15:0] $end
$var wire 16 <# temp_multiplicand [15:0] $end
$var wire 16 =# temp_meltiplier [15:0] $end
$var wire 32 ># r_result [31:0] $end
$var reg 1 ?# is_signed $end
$var reg 1 s" ovr $end
$var reg 16 @# r_RetVal [15:0] $end
$var reg 16 A# temp_RetVal [15:0] $end
$upscope $end
$scope module qmult_real $end
$var wire 16 B# i_multiplicand [15:0] $end
$var wire 16 C# i_multiplier [15:0] $end
$var wire 16 D# o_result [15:0] $end
$var wire 16 E# temp_multiplicand [15:0] $end
$var wire 16 F# temp_meltiplier [15:0] $end
$var wire 32 G# r_result [31:0] $end
$var reg 1 H# is_signed $end
$var reg 1 r" ovr $end
$var reg 16 I# r_RetVal [15:0] $end
$var reg 16 J# temp_RetVal [15:0] $end
$upscope $end
$upscope $end
$upscope $end
$scope begin sq_block $end
$upscope $end
$upscope $end
$scope module invDh_inst $end
$var wire 16 K# ONEA [15:0] $end
$var wire 16 L# ONEB [15:0] $end
$var wire 1 , clk $end
$var wire 16 M# dividend [15:0] $end
$var wire 16 N# divisor [15:0] $end
$var wire 1 O# rstn $end
$var wire 16 P# udivisor [15:0] $end
$var wire 16 Q# udividend [15:0] $end
$var wire 32 R# divr [31:0] $end
$var wire 32 S# divd [31:0] $end
$var reg 16 T# out [15:0] $end
$var reg 1 F overflow $end
$var reg 16 U# roundedres [15:0] $end
$var reg 1 V# rsign $end
$var reg 32 W# tmp [31:0] $end
$var integer 32 X# ii [31:0] $end
$scope module dividend_zoom $end
$var wire 16 Y# in [15:0] $end
$var wire 32 Z# out [31:0] $end
$var reg 8 [# ini [7:0] $end
$var reg 24 \# inr [23:0] $end
$var reg 16 ]# outf [15:0] $end
$var reg 16 ^# outi [15:0] $end
$var reg 1 _# overflow $end
$scope begin genblk10 $end
$upscope $end
$scope begin genblk8 $end
$upscope $end
$upscope $end
$scope module divisor_zoom $end
$var wire 16 `# in [15:0] $end
$var wire 32 a# out [31:0] $end
$var reg 8 b# ini [7:0] $end
$var reg 24 c# inr [23:0] $end
$var reg 16 d# outf [15:0] $end
$var reg 16 e# outi [15:0] $end
$var reg 1 f# overflow $end
$scope begin genblk10 $end
$upscope $end
$scope begin genblk8 $end
$upscope $end
$upscope $end
$upscope $end
$scope module traceGa1 $end
$var wire 1 , clk $end
$var wire 16 g# g_rd_data_i [15:0] $end
$var wire 16 h# g_rd_data_r [15:0] $end
$var wire 1 . rst $end
$var wire 1 E start_calc $end
$var wire 16 i# y_rd_data_i [15:0] $end
$var wire 16 j# y_rd_data_r [15:0] $end
$var wire 16 k# yh_data_r [15:0] $end
$var wire 16 l# yh_data_i [15:0] $end
$var wire 1 m# mac_result_valid $end
$var wire 16 n# mac_result_r [15:0] $end
$var wire 16 o# mac_result_i [15:0] $end
$var reg 1 ] done_calc $end
$var reg 3 p# g_rd_addr [2:0] $end
$var reg 2 q# k_counter [1:0] $end
$var reg 1 r# mac_clear $end
$var reg 1 s# mac_en $end
$var reg 4 t# next_state [3:0] $end
$var reg 32 u# p00_reg_i [31:0] $end
$var reg 32 v# p00_reg_r [31:0] $end
$var reg 4 w# state [3:0] $end
$var reg 16 x# trace_result_i [15:0] $end
$var reg 16 y# trace_result_r [15:0] $end
$var reg 3 z# y_rd_addr [2:0] $end
$scope module mac_engine $end
$var wire 1 , clk $end
$var wire 16 {# in_ai [15:0] $end
$var wire 16 |# in_ar [15:0] $end
$var wire 16 }# in_bi [15:0] $end
$var wire 16 ~# in_br [15:0] $end
$var wire 1 r# mac_clear $end
$var wire 1 s# mac_en $end
$var wire 1 . rst $end
$var wire 1 !$ product_valid $end
$var wire 16 "$ product_r [15:0] $end
$var wire 16 #$ product_i [15:0] $end
$var wire 1 $$ mac_rs_valid $end
$var reg 6 %$ data_valid_pipe [5:0] $end
$var reg 2 &$ mac_counter [1:0] $end
$var reg 16 '$ mac_i_out [15:0] $end
$var reg 32 ($ mac_i_reg [31:0] $end
$var reg 32 )$ mac_i_tmp [31:0] $end
$var reg 16 *$ mac_r_out [15:0] $end
$var reg 32 +$ mac_r_reg [31:0] $end
$var reg 32 ,$ mac_r_tmp [31:0] $end
$var reg 1 m# mac_result_valid $end
$scope module cmult_inst $end
$var wire 16 -$ ai [15:0] $end
$var wire 16 .$ ar [15:0] $end
$var wire 16 /$ bi [15:0] $end
$var wire 16 0$ br [15:0] $end
$var wire 1 , clk $end
$var wire 16 1$ pi [15:0] $end
$var wire 16 2$ pr [15:0] $end
$var wire 1 . rst $end
$var wire 16 3$ tmp_multr [15:0] $end
$var wire 16 4$ tmp_multi [15:0] $end
$var wire 16 5$ tmp_mult0 [15:0] $end
$var wire 1 6$ ovr_multr $end
$var wire 1 7$ ovr_multi $end
$var wire 1 8$ ovr_mult0 $end
$var reg 16 9$ addcommon [15:0] $end
$var reg 16 :$ addi [15:0] $end
$var reg 16 ;$ addr [15:0] $end
$var reg 16 <$ ai_d [15:0] $end
$var reg 16 =$ ai_dd [15:0] $end
$var reg 16 >$ ai_ddd [15:0] $end
$var reg 16 ?$ ai_dddd [15:0] $end
$var reg 16 @$ ar_d [15:0] $end
$var reg 16 A$ ar_dd [15:0] $end
$var reg 16 B$ ar_ddd [15:0] $end
$var reg 16 C$ ar_dddd [15:0] $end
$var reg 16 D$ bi_d [15:0] $end
$var reg 16 E$ bi_dd [15:0] $end
$var reg 16 F$ bi_ddd [15:0] $end
$var reg 16 G$ br_d [15:0] $end
$var reg 16 H$ br_dd [15:0] $end
$var reg 16 I$ br_ddd [15:0] $end
$var reg 16 J$ common [15:0] $end
$var reg 16 K$ commonr1 [15:0] $end
$var reg 16 L$ commonr2 [15:0] $end
$var reg 16 M$ mult0 [15:0] $end
$var reg 16 N$ multi [15:0] $end
$var reg 16 O$ multr [15:0] $end
$var reg 16 P$ pi_int [15:0] $end
$var reg 16 Q$ pr_int [15:0] $end
$scope module qmult_common $end
$var wire 16 R$ i_multiplicand [15:0] $end
$var wire 16 S$ i_multiplier [15:0] $end
$var wire 16 T$ o_result [15:0] $end
$var wire 16 U$ temp_multiplicand [15:0] $end
$var wire 16 V$ temp_meltiplier [15:0] $end
$var wire 32 W$ r_result [31:0] $end
$var reg 1 X$ is_signed $end
$var reg 1 8$ ovr $end
$var reg 16 Y$ r_RetVal [15:0] $end
$var reg 16 Z$ temp_RetVal [15:0] $end
$upscope $end
$scope module qmult_imag $end
$var wire 16 [$ i_multiplicand [15:0] $end
$var wire 16 \$ i_multiplier [15:0] $end
$var wire 16 ]$ o_result [15:0] $end
$var wire 16 ^$ temp_multiplicand [15:0] $end
$var wire 16 _$ temp_meltiplier [15:0] $end
$var wire 32 `$ r_result [31:0] $end
$var reg 1 a$ is_signed $end
$var reg 1 7$ ovr $end
$var reg 16 b$ r_RetVal [15:0] $end
$var reg 16 c$ temp_RetVal [15:0] $end
$upscope $end
$scope module qmult_real $end
$var wire 16 d$ i_multiplicand [15:0] $end
$var wire 16 e$ i_multiplier [15:0] $end
$var wire 16 f$ o_result [15:0] $end
$var wire 16 g$ temp_multiplicand [15:0] $end
$var wire 16 h$ temp_meltiplier [15:0] $end
$var wire 32 i$ r_result [31:0] $end
$var reg 1 j$ is_signed $end
$var reg 1 6$ ovr $end
$var reg 16 k$ r_RetVal [15:0] $end
$var reg 16 l$ temp_RetVal [15:0] $end
$upscope $end
$upscope $end
$upscope $end
$upscope $end
$scope module xI1_calc_inst $end
$var wire 16 m$ ai [15:0] $end
$var wire 16 n$ ar [15:0] $end
$var wire 16 o$ bi [15:0] $end
$var wire 16 p$ br [15:0] $end
$var wire 1 , clk $end
$var wire 16 q$ pi [15:0] $end
$var wire 16 r$ pr [15:0] $end
$var wire 1 . rst $end
$var wire 16 s$ tmp_multr [15:0] $end
$var wire 16 t$ tmp_multi [15:0] $end
$var wire 16 u$ tmp_mult0 [15:0] $end
$var wire 1 v$ ovr_multr $end
$var wire 1 w$ ovr_multi $end
$var wire 1 x$ ovr_mult0 $end
$var reg 16 y$ addcommon [15:0] $end
$var reg 16 z$ addi [15:0] $end
$var reg 16 {$ addr [15:0] $end
$var reg 16 |$ ai_d [15:0] $end
$var reg 16 }$ ai_dd [15:0] $end
$var reg 16 ~$ ai_ddd [15:0] $end
$var reg 16 !% ai_dddd [15:0] $end
$var reg 16 "% ar_d [15:0] $end
$var reg 16 #% ar_dd [15:0] $end
$var reg 16 $% ar_ddd [15:0] $end
$var reg 16 %% ar_dddd [15:0] $end
$var reg 16 &% bi_d [15:0] $end
$var reg 16 '% bi_dd [15:0] $end
$var reg 16 (% bi_ddd [15:0] $end
$var reg 16 )% br_d [15:0] $end
$var reg 16 *% br_dd [15:0] $end
$var reg 16 +% br_ddd [15:0] $end
$var reg 16 ,% common [15:0] $end
$var reg 16 -% commonr1 [15:0] $end
$var reg 16 .% commonr2 [15:0] $end
$var reg 16 /% mult0 [15:0] $end
$var reg 16 0% multi [15:0] $end
$var reg 16 1% multr [15:0] $end
$var reg 16 2% pi_int [15:0] $end
$var reg 16 3% pr_int [15:0] $end
$scope module qmult_common $end
$var wire 16 4% i_multiplicand [15:0] $end
$var wire 16 5% i_multiplier [15:0] $end
$var wire 16 6% o_result [15:0] $end
$var wire 16 7% temp_multiplicand [15:0] $end
$var wire 16 8% temp_meltiplier [15:0] $end
$var wire 32 9% r_result [31:0] $end
$var reg 1 :% is_signed $end
$var reg 1 x$ ovr $end
$var reg 16 ;% r_RetVal [15:0] $end
$var reg 16 <% temp_RetVal [15:0] $end
$upscope $end
$scope module qmult_imag $end
$var wire 16 =% i_multiplicand [15:0] $end
$var wire 16 >% i_multiplier [15:0] $end
$var wire 16 ?% o_result [15:0] $end
$var wire 16 @% temp_multiplicand [15:0] $end
$var wire 16 A% temp_meltiplier [15:0] $end
$var wire 32 B% r_result [31:0] $end
$var reg 1 C% is_signed $end
$var reg 1 w$ ovr $end
$var reg 16 D% r_RetVal [15:0] $end
$var reg 16 E% temp_RetVal [15:0] $end
$upscope $end
$scope module qmult_real $end
$var wire 16 F% i_multiplicand [15:0] $end
$var wire 16 G% i_multiplier [15:0] $end
$var wire 16 H% o_result [15:0] $end
$var wire 16 I% temp_multiplicand [15:0] $end
$var wire 16 J% temp_meltiplier [15:0] $end
$var wire 32 K% r_result [31:0] $end
$var reg 1 L% is_signed $end
$var reg 1 v$ ovr $end
$var reg 16 M% r_RetVal [15:0] $end
$var reg 16 N% temp_RetVal [15:0] $end
$upscope $end
$upscope $end
$upscope $end
$scope task drive_h_matrix $end
$var integer 32 O% i [31:0] $end
$var integer 32 P% j [31:0] $end
$upscope $end
$scope task drive_y_matrix $end
$var integer 32 Q% i [31:0] $end
$upscope $end
$scope task generate_y_matrix $end
$upscope $end
$scope task initialize_signals $end
$upscope $end
$scope task read_h_matrix_from_file $end
$var reg 16 R% temp_data [15:0] $end
$var integer 32 S% dummy [31:0] $end
$var integer 32 T% h_imag_fd [31:0] $end
$var integer 32 U% h_real_fd [31:0] $end
$var integer 32 V% i [31:0] $end
$var integer 32 W% j [31:0] $end
$upscope $end
$scope task reset_dut $end
$upscope $end
$upscope $end
$enddefinitions $end
#0
$dumpvars
bx W%
bx V%
bx U%
bx T%
bx S%
bx R%
bx Q%
bx P%
bx O%
bx N%
bx M%
xL%
bx K%
bx J%
bx I%
bx H%
bx G%
bx F%
bx E%
bx D%
xC%
bx B%
bx A%
bx @%
bx ?%
bx >%
bx =%
bx <%
bx ;%
x:%
bx 9%
bx 8%
bx 7%
bx 6%
bx 5%
bx 4%
bx 3%
bx 2%
bx 1%
bx 0%
bx /%
bx .%
bx -%
bx ,%
bx +%
bx *%
bx )%
bx (%
bx '%
bx &%
bx %%
bx $%
bx #%
bx "%
bx !%
bx ~$
bx }$
bx |$
bx {$
bx z$
bx y$
xx$
xw$
xv$
bx u$
bx t$
bx s$
bx r$
bx q$
b0 p$
b0 o$
b0 n$
b0 m$
bx l$
bx k$
xj$
bx i$
bx h$
bx g$
bx f$
bx e$
bx d$
bx c$
bx b$
xa$
bx `$
bx _$
bx ^$
bx ]$
bx \$
bx [$
bx Z$
bx Y$
xX$
bx W$
bx V$
bx U$
bx T$
bx S$
bx R$
bx Q$
bx P$
bx O$
bx N$
bx M$
bx L$
bx K$
bx J$
bx I$
bx H$
bx G$
bx F$
bx E$
bx D$
bx C$
bx B$
bx A$
bx @$
bx ?$
bx >$
bx =$
bx <$
bx ;$
bx :$
bx 9$
x8$
x7$
x6$
bx 5$
bx 4$
bx 3$
bx 2$
bx 1$
bx 0$
bx /$
bx .$
bx -$
bx ,$
b0 +$
b0 *$
bx )$
b0 ($
b0 '$
b0 &$
b0 %$
0$$
bx #$
bx "$
0!$
bx ~#
bx }#
bx |#
bx {#
b0 z#
b0 y#
b0 x#
b0 w#
b0 v#
b0 u#
b0 t#
0s#
0r#
b0 q#
b0 p#
b0 o#
b0 n#
xm#
bx l#
bx k#
bx j#
bx i#
bx h#
bx g#
0f#
b0 e#
b0 d#
b0 c#
b0 b#
b0 a#
b0 `#
0_#
b1 ^#
b0 ]#
b10000000000000000 \#
b1 [#
b10000000000000000 Z#
b100000000 Y#
b10000 X#
bx W#
0V#
b0 U#
b0 T#
b10000000000000000 S#
b0 R#
b100000000 Q#
b0 P#
0O#
b0 N#
b100000000 M#
b1 L#
b1 K#
bx J#
bx I#
xH#
bx G#
bx F#
bx E#
bx D#
bx C#
bx B#
bx A#
bx @#
x?#
bx >#
bx =#
bx <#
bx ;#
bx :#
bx 9#
bx 8#
bx 7#
x6#
bx 5#
bx 4#
bx 3#
bx 2#
bx 1#
bx 0#
bx /#
bx .#
bx -#
bx ,#
bx +#
bx *#
bx )#
bx (#
bx '#
bx &#
bx %#
bx $#
bx ##
bx "#
bx !#
bx ~"
bx }"
bx |"
bx {"
bx z"
bx y"
bx x"
bx w"
bx v"
bx u"
xt"
xs"
xr"
bx q"
bx p"
bx o"
bx n"
bx m"
b10000000 l"
b0 k"
bx j"
bx i"
bx h"
b0 g"
b0 f"
bx e"
b0 d"
b0 c"
b0 b"
b0 a"
0`"
bx _"
bx ^"
0]"
b10000000 \"
b0 ["
bx Z"
bx Y"
b0 X"
b10000000 W"
b0 V"
b0 U"
b11 T"
0S"
b0 R"
b0 Q"
b0 P"
0O"
b0 N"
b0 M"
b0 L"
b0 K"
b0 J"
xI"
b0 H"
xG"
1F"
bx E"
bx D"
b0 C"
b0 B"
b0 A"
b0 @"
b0 ?"
b0 >"
b0 ="
b0 <"
b0 ;"
b0 :"
b0 9"
b0 8"
b0 7"
b0 6"
b0 5"
b0 4"
b0 3"
b0 2"
b0 1"
b0 0"
bx /"
bx ."
bx -"
bx ,"
bx +"
bx *"
bx )"
bx ("
x'"
bx &"
bx %"
bx $"
bx #"
bx ""
bx !"
bx ~
bx }
x|
bx {
bx z
bx y
bx x
bx w
bx v
b0 u
b0 t
b0 s
bx r
xq
xp
bx o
bx n
0m
bx l
bx k
b0 j
b0 i
b0 h
b0 g
b0 f
b0 e
1d
b0 c
b0 b
b0 a
b0 `
b0 _
0^
0]
b0 \
b0 [
b0 Z
b0 Y
b0 X
b0 W
b0 V
b0 U
b0 T
b0 S
b0 R
b0 Q
b0 P
b0 O
b0 N
b0 M
b0 L
b0 K
bx J
0I
bx H
bx G
0F
0E
b0 D
0C
0B
b0 A
b0 @
0?
b0 >
b0 =
b0 <
0;
b0 :
bx 9
bx 8
b0 7
06
bx 5
bx 4
b0 3
b0 2
bx 1
bx 0
0/
1.
b0 -
0,
x+
bx *
bx )
0(
b0 '
b0 &
0%
b0 $
b0 #
b0 "
b0 !
$end
#5000
b0 "#
b0 %#
b0 x"
b0 |"
b0 D$
b0 G$
b0 <$
b0 @$
b0 &%
b0 )%
b0 |$
b0 "%
b10000 X#
1,
#10000
0,
#15000
b0 7%
b0 U$
b0 3#
b0 y$
b0 4%
b0 9$
b0 R$
b0 u"
b0 0#
b10000 X#
1,
#20000
b0 T"
0d
0,
1O#
0.
#25000
0t"
b0 q"
b0 2#
b0 7#
b0 8#
06#
08$
b0 5$
b0 T$
b0 Y$
b0 Z$
0X$
0x$
b0 u$
b0 6%
b0 ;%
b0 <%
0:%
b0 5#
b0 4#
b0 W$
b0 V$
b0 9%
b0 8%
0m#
0G"
0I"
b0 ##
b0 1#
b0 &#
b10000000 %#
b0 y"
bx x"
b0 }"
bx |"
b0 E$
b0 S$
bx D$
b0 H$
bx G$
b0 =$
bx <$
b0 A$
bx @$
b0 '%
b0 5%
b0 *%
b0 }$
b0 #%
b0 W#
b10000 X#
1,
#30000
0,
#35000
x8$
bx 5$
bx T$
bx Y$
b0xxxxxxxxxxxxxxx Z$
xX$
xt"
bx q"
bx 2#
bx 7#
b0xxxxxxxxxxxxxxx 8#
x6#
bx U$
bx W$
bx V$
bx 5#
bx 3#
b0 ~$
b0 $%
b0 /%
b0 (%
b0 +%
b0 >$
b0 B$
b0 M$
bx 9$
bx R$
b0 F$
bx E$
bx S$
b0 I$
bx H$
bx =$
bx A$
b0 z"
b0 ~"
b0 +#
bx u"
bx 0#
b0 $#
b0 '#
b10000000 &#
bx y"
bx }"
b10000 X#
1,
#40000
b1 c
0,
1/
#45000
0r"
b0 o"
b0 D#
b0 I#
b0 J#
0H#
0s"
b0 p"
b0 ;#
b0 @#
b0 A#
0?#
06$
b0 3$
b0 f$
b0 k$
b0 l$
0j$
07$
b0 4$
b0 ]$
b0 b$
b0 c$
0a$
0v$
b0 s$
b0 H%
b0 M%
b0 N%
0L%
0w$
b0 t$
b0 ?%
b0 D%
b0 E%
0C%
b0 G#
b0 E#
b0 F#
b0 >#
b0 <#
b0 =#
b0 i$
b0 g$
b0 h$
b0 `$
b0 ^$
b0 _$
b0 K%
b0 I%
b0 J%
b0 B%
b0 @%
b0 A%
b1 e
b10000000 '#
b0 (#
bx +#
b0 w"
b0 B#
b0 !#
b0 C#
bx ~"
b0 v"
b0 9#
b0 {"
b0 :#
bx z"
bx F$
bx I$
b0 J$
bx M$
b0 ;$
b0 d$
b0 C$
b0 e$
bx B$
b0 :$
b0 [$
b0 ?$
b0 \$
bx >$
b0 ,%
b0 {$
b0 F%
b0 %%
b0 G%
b0 z$
b0 =%
b0 !%
b0 >%
b1 c
b10000 X#
b1 S%
b1000110 R%
b100 V%
b100 W%
b10000000000000000000000000000100 T%
b10000000000000000000000000000011 U%
0/
1,
#50000
0,
