tb.vcd
$date
	Tue Oct  7 18:20:36 2025
$end
$version
	Icarus Verilog
$end
$timescale
	1ps
$end
$scope module tb_x_calculate $end
$var wire 16 ! xQ2_out [15:0] $end
$var wire 16 " xQ1_out [15:0] $end
$var wire 16 # xI2_out [15:0] $end
$var wire 16 $ xI1_out [15:0] $end
$var wire 1 % done $end
$var reg 16 & H_in_i [15:0] $end
$var reg 16 ' H_in_r [15:0] $end
$var reg 1 ( H_in_valid $end
$var reg 16 ) Y_in_i [15:0] $end
$var reg 16 * Y_in_r [15:0] $end
$var reg 1 + Y_in_valid $end
$var reg 1 , clk $end
$var reg 4 - q_index [3:0] $end
$var reg 1 . rst $end
$var reg 1 / start $end
$scope module dut $end
$var wire 16 0 H_in_i [15:0] $end
$var wire 16 1 H_in_r [15:0] $end
$var wire 1 ( H_in_valid $end
$var wire 16 2 Y_in_i [15:0] $end
$var wire 16 3 Y_in_r [15:0] $end
$var wire 1 + Y_in_valid $end
$var wire 1 , clk $end
$var wire 1 4 load_H_done $end
$var wire 4 5 q_index [3:0] $end
$var wire 1 . rst $end
$var wire 1 / start_new_q $end
$var wire 1 6 load_Y_done $end
$var wire 2 7 k_counter [1:0] $end
$var wire 2 8 i_counter [1:0] $end
$var wire 1 9 hq_valid $end
$var wire 16 : hq_r [15:0] $end
$var wire 16 ; hq_i [15:0] $end
$var wire 1 < hq_done $end
$var wire 1 = all_16_hq_done $end
$var reg 2 > load_col_cnt [1:0] $end
$var reg 2 ? load_row_cnt [1:0] $end
$var reg 2 @ next_state [1:0] $end
$var reg 1 % q_done $end
$var reg 1 A start_hq_calc $end
$var reg 2 B state [1:0] $end
$var reg 16 C xI1_out [15:0] $end
$var reg 16 D xI2_out [15:0] $end
$var reg 16 E xQ1_out [15:0] $end
$var reg 16 F xQ2_out [15:0] $end
$var reg 3 G y_count [2:0] $end
$scope module hq_calc_inst $end
$var wire 16 H H_in_i [15:0] $end
$var wire 16 I H_in_r [15:0] $end
$var wire 1 J H_in_valid $end
$var wire 1 , clk $end
$var wire 1 K mac_clear $end
$var wire 4 L q_index [3:0] $end
$var wire 1 . rst $end
$var wire 1 A start $end
$var wire 1 M mac_result_valid $end
$var wire 16 N mac_result_r [15:0] $end
$var wire 16 O mac_result_i [15:0] $end
$var reg 16 P Hq_out_i [15:0] $end
$var reg 16 Q Hq_out_r [15:0] $end
$var reg 1 9 Hq_out_valid $end
$var reg 1 = all_16_hq_done $end
$var reg 1 < hq_one_matrix_done $end
$var reg 2 R i_counter [1:0] $end
$var reg 1 S j_counter $end
$var reg 2 T k_counter [1:0] $end
$var reg 2 U load_col_cnt [1:0] $end
$var reg 2 V load_row_cnt [1:0] $end
$var reg 1 W mac_en $end
$var reg 4 X next_state [3:0] $end
$var reg 4 Y q_counter_reg [3:0] $end
$var reg 16 Z s_data_i [15:0] $end
$var reg 16 [ s_data_r [15:0] $end
$var reg 4 \ state [3:0] $end
$scope module c_mac_inst $end
$var wire 1 , clk $end
$var wire 16 ] in_ai [15:0] $end
$var wire 16 ^ in_ar [15:0] $end
$var wire 16 _ in_bi [15:0] $end
$var wire 16 ` in_br [15:0] $end
$var wire 1 K mac_clear $end
$var wire 1 W mac_en $end
$var wire 1 . rst $end
$var wire 1 a product_valid $end
$var wire 16 b product_r [15:0] $end
$var wire 16 c product_i [15:0] $end
$var wire 1 d mac_rs_valid $end
$var reg 6 e data_valid_pipe [5:0] $end
$var reg 2 f mac_counter [1:0] $end
$var reg 16 g mac_i_out [15:0] $end
$var reg 32 h mac_i_reg [31:0] $end
$var reg 32 i mac_i_tmp [31:0] $end
$var reg 16 j mac_r_out [15:0] $end
$var reg 32 k mac_r_reg [31:0] $end
$var reg 32 l mac_r_tmp [31:0] $end
$var reg 1 M mac_result_valid $end
$scope module cmult_inst $end
$var wire 16 m ai [15:0] $end
$var wire 16 n ar [15:0] $end
$var wire 16 o bi [15:0] $end
$var wire 16 p br [15:0] $end
$var wire 1 , clk $end
$var wire 16 q pi [15:0] $end
$var wire 16 r pr [15:0] $end
$var wire 1 . rst $end
$var wire 16 s tmp_multr [15:0] $end
$var wire 16 t tmp_multi [15:0] $end
$var wire 16 u tmp_mult0 [15:0] $end
$var wire 1 v ovr_multr $end
$var wire 1 w ovr_multi $end
$var wire 1 x ovr_mult0 $end
$var reg 16 y addcommon [15:0] $end
$var reg 16 z addi [15:0] $end
$var reg 16 { addr [15:0] $end
$var reg 16 | ai_d [15:0] $end
$var reg 16 } ai_dd [15:0] $end
$var reg 16 ~ ai_ddd [15:0] $end
$var reg 16 !" ai_dddd [15:0] $end
$var reg 16 "" ar_d [15:0] $end
$var reg 16 #" ar_dd [15:0] $end
$var reg 16 $" ar_ddd [15:0] $end
$var reg 16 %" ar_dddd [15:0] $end
$var reg 16 &" bi_d [15:0] $end
$var reg 16 '" bi_dd [15:0] $end
$var reg 16 (" bi_ddd [15:0] $end
$var reg 16 )" br_d [15:0] $end
$var reg 16 *" br_dd [15:0] $end
$var reg 16 +" br_ddd [15:0] $end
$var reg 16 ," common [15:0] $end
$var reg 16 -" commonr1 [15:0] $end
$var reg 16 ." commonr2 [15:0] $end
$var reg 16 /" mult0 [15:0] $end
$var reg 16 0" multi [15:0] $end
$var reg 16 1" multr [15:0] $end
$var reg 16 2" pi_int [15:0] $end
$var reg 16 3" pr_int [15:0] $end
$scope module qmult_common $end
$var wire 16 4" i_multiplicand [15:0] $end
$var wire 16 5" i_multiplier [15:0] $end
$var wire 16 6" o_result [15:0] $end
$var wire 16 7" temp_multiplicand [15:0] $end
$var wire 16 8" temp_meltiplier [15:0] $end
$var wire 32 9" r_result [31:0] $end
$var reg 1 :" is_signed $end
$var reg 1 x ovr $end
$var reg 16 ;" r_RetVal [15:0] $end
$var reg 16 <" temp_RetVal [15:0] $end
$upscope $end
$scope module qmult_imag $end
$var wire 16 =" i_multiplicand [15:0] $end
$var wire 16 >" i_multiplier [15:0] $end
$var wire 16 ?" o_result [15:0] $end
$var wire 16 @" temp_multiplicand [15:0] $end
$var wire 16 A" temp_meltiplier [15:0] $end
$var wire 32 B" r_result [31:0] $end
$var reg 1 C" is_signed $end
$var reg 1 w ovr $end
$var reg 16 D" r_RetVal [15:0] $end
$var reg 16 E" temp_RetVal [15:0] $end
$upscope $end
$scope module qmult_real $end
$var wire 16 F" i_multiplicand [15:0] $end
$var wire 16 G" i_multiplier [15:0] $end
$var wire 16 H" o_result [15:0] $end
$var wire 16 I" temp_multiplicand [15:0] $end
$var wire 16 J" temp_meltiplier [15:0] $end
$var wire 32 K" r_result [31:0] $end
$var reg 1 L" is_signed $end
$var reg 1 v ovr $end
$var reg 16 M" r_RetVal [15:0] $end
$var reg 16 N" temp_RetVal [15:0] $end
$upscope $end
$upscope $end
$upscope $end
$scope begin sq_block $end
$upscope $end
$upscope $end
$upscope $end
$scope task drive_h_matrix $end
$var integer 32 O" i [31:0] $end
$var integer 32 P" j [31:0] $end
$upscope $end
$scope task drive_y_matrix $end
$var integer 32 Q" i [31:0] $end
$upscope $end
$scope task generate_y_matrix $end
$upscope $end
$scope task initialize_signals $end
$upscope $end
$scope task read_h_matrix_from_file $end
$var reg 16 R" temp_data [15:0] $end
$var integer 32 S" dummy [31:0] $end
$var integer 32 T" h_imag_fd [31:0] $end
$var integer 32 U" h_real_fd [31:0] $end
$var integer 32 V" i [31:0] $end
$var integer 32 W" j [31:0] $end
$upscope $end
$scope task reset_dut $end
$upscope $end
$upscope $end
$enddefinitions $end
#0
$dumpvars
bx W"
bx V"
bx U"
bx T"
bx S"
bx R"
bx Q"
bx P"
bx O"
bx N"
bx M"
xL"
bx K"
bx J"
bx I"
bx H"
bx G"
bx F"
bx E"
bx D"
xC"
bx B"
bx A"
bx @"
bx ?"
bx >"
bx ="
bx <"
bx ;"
x:"
bx 9"
bx 8"
bx 7"
bx 6"
bx 5"
bx 4"
bx 3"
bx 2"
bx 1"
bx 0"
bx /"
bx ."
bx -"
bx ,"
bx +"
bx *"
bx )"
bx ("
bx '"
bx &"
bx %"
bx $"
bx #"
bx ""
bx !"
bx ~
bx }
bx |
bx {
bx z
bx y
xx
xw
xv
bx u
bx t
bx s
bx r
bx q
b10000000 p
b0 o
bx n
bx m
bx l
b0 k
b0 j
bx i
b0 h
b0 g
b0 f
b0 e
0d
bx c
bx b
0a
b10000000 `
b0 _
bx ^
bx ]
b0 \
b10000000 [
b0 Z
b0 Y
b11 X
0W
b0 V
b0 U
b0 T
0S
b0 R
b0 Q
b0 P
b0 O
b0 N
xM
b0 L
xK
1J
bx I
bx H
b0 G
b0 F
b0 E
b0 D
b0 C
b0 B
1A
b0 @
b0 ?
b0 >
0=
0<
b0 ;
b0 :
09
b0 8
b0 7
06
b0 5
04
bx 3
bx 2
b0 1
b0 0
0/
1.
b0 -
0,
x+
bx *
bx )
0(
b0 '
b0 &
0%
b0 $
b0 #
b0 "
b0 !
$end
#5000
b0 &"
b0 )"
b0 |
b0 ""
1,
#10000
0,
#15000
b0 7"
b0 y
b0 4"
1,
#20000
b0 X
0A
0,
0.
#25000
0x
b0 u
b0 6"
b0 ;"
b0 <"
0:"
b0 9"
b0 8"
0K
0M
b0 '"
b0 5"
b0 *"
b10000000 )"
b0 }
bx |
b0 #"
bx ""
1,
#30000
0,
#35000
xx
bx u
bx 6"
bx ;"
b0xxxxxxxxxxxxxxx <"
x:"
bx 9"
bx 7"
b0 ~
b0 $"
b0 /"
bx y
bx 4"
b0 ("
b0 +"
b10000000 *"
bx }
bx #"
1,
#40000
b1 @
0,
1/
#45000
0v
b0 s
b0 H"
b0 M"
b0 N"
0L"
0w
b0 t
b0 ?"
b0 D"
b0 E"
0C"
b0 K"
b0 I"
b0 J"
b0 B"
b0 @"
b0 A"
b1 B
b10000000 +"
b0 ,"
bx /"
b0 {
b0 F"
b0 %"
b0 G"
bx $"
b0 z
b0 ="
b0 !"
b0 >"
bx ~
b1 @
b1 S"
b1000110 R"
b100 V"
b100 W"
b10000000000000000000000000000100 T"
b10000000000000000000000000000011 U"
0/
1,
#50000
0,
#55000
xw
bx t
bx ?"
bx D"
b0xxxxxxxxxxxxxxx E"
xC"
xv
bx s
bx H"
bx M"
b0xxxxxxxxxxxxxxx N"
xL"
b10000000 @"
bx B"
bx A"
b10000000 I"
bx K"
bx J"
b1 G
b1 >
b1000100 H
b1000100 ]
b1000100 m
b1111111111101110 I
b1111111111101110 ^
b1111111111101110 n
b0 ."
b0 0"
b10000000 z
b10000000 ="
bx !"
bx >"
b0 -"
b0 1"
b10000000 {
b10000000 F"
bx %"
bx G"
bx ,"
b100000000 )
b100000000 2
b100000000 *
b100000000 3
1+
b0 Q"
b1000100 &
b1000100 0
b1111111111101110 '
b1111111111101110 1
1(
b0 P"
b0 O"
1,
#60000
0,
#65000
b10 G
b10 >
b1000100 |
b1111111111101110 ""
b0 b
b0 r
b0 3"
bx -"
bx 1"
b0 c
b0 q
b0 2"
bx ."
bx 0"
b1111110 &
b1111110 0
b1111111111011001 '
b1111111111011001 1
b1 P"
b1000000000 )
b1000000000 2
b1000000000 *
b1000000000 3
b1 Q"
1,
#70000
0,
#75000
0x
b0 u
b0 6"
b0 ;"
b0 <"
1:"
b0 9"
b1010110 7"
b11 G
b11 >
bx c
bx q
bx 2"
bx b
bx r
bx 3"
b1111111110101010 y
b1111111110101010 4"
b1000100 }
b1111111111101110 #"
b1100000000 )
b1100000000 2
b1100000000 *
b1100000000 3
b10 Q"
b1111111101100000 &
b1111111101100000 0
b1111111111010110 '
b1111111111010110 1
b10 P"
1,
#80000
0,
#85000
b100 G
b1 ?
b0 >
b0 /"
b1111111111101110 $"
b1000100 ~
b1111111110111111 &
b1111111110111111 0
b11000000 '
b11000000 1
b11 P"
b100000000 )
b100000000 2
b100000000 *
b100000000 3
b11 Q"
1,
#90000
0,
#95000
0w
b100010 t
b100010 ?"
b100010 D"
b100010 E"
0C"
0v
b1111111111110111 s
b1111111111110111 H"
b1111111111110111 M"
b1001 N"
1L"
b10001000000000 B"
b100100000000 K"
b1000100 A"
b10010 J"
b101 G
b1 >
b1000100 !"
b1000100 >"
b1111111111101110 %"
b1111111111101110 G"
b0 ,"
b100 Q"
b1111111101111011 &
b1111111101111011 0
b101100100 '
b101100100 1
b1 O"
b0 P"
1,
#100000
0,
#105000
b110 G
b10 >
b0 -"
b1111111111110111 1"
b0 ."
b100010 0"
b101010111 &
b101010111 0
b1010111 '
b1010111 1
b1 P"
b1000000000 )
b1000000000 2
b101 Q"
1,
#110000
0,
#115000
16
b111 G
b11 >
b100010 c
b100010 q
b100010 2"
b1111111111110111 b
b1111111111110111 r
b1111111111110111 3"
b1100000000 )
b1100000000 2
b110 Q"
b10011 &
b10011 0
b10111010 '
b10111010 1
b10 P"
1,
#120000
0,
#125000
b10 ?
b0 >
06
b0 G
b10010010 &
b10010010 0
b1111111111011001 '
b1111111111011001 1
b11 P"
b10000000000 )
b10000000000 2
b111 Q"
1,
#130000
0,
#135000
b1 >
0+
b1000 Q"
b1001110 &
b1001110 0
b101010010 '
b101010010 1
b10 O"
b0 P"
1,
#140000
0,
#145000
b10 >
b1111111110111101 &
b1111111110111101 0
b111000010 '
b111000010 1
b1 P"
1,
#150000
0,
#155000
b11 >
b1111111100111001 &
b1111111100111001 0
b1111111011010001 '
b1111111011010001 1
b10 P"
1,
#160000
0,
#165000
b11 ?
b0 >
b10000010 &
b10000010 0
b1111111110100011 '
b1111111110100011 1
b11 P"
1,
#170000
0,
#175000
b1 >
b1111111101010101 &
b1111111101010101 0
b1111111111000000 '
b1111111111000000 1
b11 O"
b0 P"
1,
#180000
0,
#185000
b10 >
b1111111011111111 &
b1111111011111111 0
b10001101 '
b10001101 1
b1 P"
1,
#190000
0,
#195000
b10 @
14
b11 >
b11001 &
b11001 0
b1111111100010100 '
b1111111100010100 1
b10 P"
1,
#200000
0,
#205000
04
b11 X
b0 ?
b0 >
1A
b10 B
b1000110 &
b1000110 0
b110 '
b110 1
b11 P"
1,
#210000
0,
#215000
1W
b11 \
0A
0(
b100 O"
b100 P"
1,
#220000
0,
#225000
1W
b1111111110000000 [
b1111111110000000 `
b1111111110000000 p
b1111110 H
b1111110 ]
b1111110 m
b1111111111011001 I
b1111111111011001 ^
b1111111111011001 n
b1 7
b1 T
b1 e
1,
#230000
0,
#235000
1W
b10000000 [
b10000000 `
b10000000 p
b11 e
b1111111101100000 H
b1111111101100000 ]
b1111111101100000 m
b1111111111010110 I
b1111111111010110 ^
b1111111111010110 n
b10 7
b10 T
b1111111110000000 )"
b1111110 |
b1111111111011001 ""
1,
#240000
0,
#245000
b100 X
1W
b1111111110000000 [
b1111111110000000 `
b1111111110000000 p
b10100101 7"
b1111111110111111 H
b1111111110111111 ]
b1111111110111111 m
b11000000 I
b11000000 ^
b11000000 n
b11 7
b11 T
b111 e
b1111111110000000 *"
b10000000 )"
b1111110 }
b1111111101100000 |
b1111111111011001 #"
b1111111111010110 ""
b1111111101011011 y
b1111111101011011 4"
1,
#250000
0,
#255000
b10000000 [
b10000000 `
b10000000 p
0W
b1110110 7"
b1111 e
b1000100 H
b1000100 ]
b1000100 m
b1111111111101110 I
b1111111111101110 ^
b1111111111101110 n
b0 7
b0 T
b100 \
b1111110 ~
b1111111111011001 $"
b1110110 y
b1110110 4"
b1111111110000000 +"
b10000000 *"
b1111111110000000 )"
b1111111101100000 }
b1111111110111111 |
b1111111111010110 #"
b11000000 ""
1,
#260000
0,
#265000
0v
b10011 s
b10011 H"
b10011 M"
b10011 N"
0L"
0w
b1111111111000001 t
b1111111111000001 ?"
b1111111111000001 D"
b111111 E"
1C"
b100000001 7"
b10000000 I"
b1001110000000 K"
b100111 J"
b10000000 @"
b11111100000000 B"
b1111110 A"
b11110 e
b10000000 +"
b1111111110000000 *"
b10000000 )"
b1111111110111111 }
b1000100 |
b11000000 #"
b1111111111101110 ""
b100000001 y
b100000001 4"
b1111111110000000 {
b1111111110000000 F"
b1111111111011001 %"
b1111111111011001 G"
b1111111111010110 $"
b1111111110000000 z
b1111111110000000 ="
b1111110 !"
b1111110 >"
b1111111101100000 ~
1,
#270000
0,
#275000
b1111111110110000 t
b1111111110110000 ?"
b1111111110110000 D"
b1010000 E"
0v
b1111111111101011 s
b1111111111101011 H"
b1111111111101011 M"
b10101 N"
1L"
1a
b10000000 @"
b101000000000000 B"
b10100000 A"
b10000000 I"
b1010100000000 K"
b101010 J"
b1010110 7"
b111100 e
b1111111111000001 0"
b10000000 z
b10000000 ="
b1111111101100000 !"
b1111111101100000 >"
b1111111110111111 ~
b10011 1"
b10000000 {
b10000000 F"
b1111111111010110 %"
b1111111111010110 G"
b11000000 $"
b1111111110101010 y
b1111111110101010 4"
b1111111110000000 +"
b10000000 *"
b1000100 }
b1111111111101110 #"
1,
#280000
0,
#285000
b1111111110100000 s
b1111111110100000 H"
b1111111110100000 M"
b1100000 N"
0w
b100000 t
b100000 ?"
b100000 D"
b100000 E"
0C"
b10000000 I"
b110000000000000 K"
b11000000 J"
b10000000 @"
b10000010000000 B"
b1000001 A"
b100010 h
b11111111111111111111111111110111 k
b111000 e
b1 f
b10000000 +"
b10011 b
b10011 r
b10011 3"
b1111111111101011 1"
b1111111110000000 {
b1111111110000000 F"
b11000000 %"
b11000000 G"
b1111111111101110 $"
b1111111111000001 c
b1111111111000001 q
b1111111111000001 2"
b1111111110110000 0"
b1111111110000000 z
b1111111110000000 ="
b1111111110111111 !"
b1111111110111111 >"
b1000100 ~
1,
#290000
0,
#295000
b100010 t
b100010 ?"
b100010 D"
b100010 E"
b1111111111110111 s
b1111111111110111 H"
b1111111111110111 M"
b1001 N"
b10000000 @"
b10001000000000 B"
b1000100 A"
b10000000 I"
b100100000000 K"
b10010 J"
b10 f
b110000 e
b11111111111111111111111111100011 h
b1010 k
b1111111110110000 c
b1111111110110000 q
b1111111110110000 2"
b100000 0"
b10000000 z
b10000000 ="
b1000100 !"
b1000100 >"
b1111111111101011 b
b1111111111101011 r
b1111111111101011 3"
b1111111110100000 1"
b10000000 {
b10000000 F"
b1111111111101110 %"
b1111111111101110 G"
1,
#300000
0,
#305000
1d
b11111111111111111111111110010011 h
b11111111111111111111111111110101 k
b100000 e
b11 f
b1111111110100000 b
b1111111110100000 r
b1111111110100000 3"
b1111111111110111 1"
b100000 c
b100000 q
b100000 2"
b100010 0"
1,
#310000
0,
#315000
0d
0a
b11 X
b1111111110110011 ;
b1111111110110011 P
b1111111110010101 :
b1111111110010101 Q
19
b0 f
b0 e
1K
1M
b11111111111111111111111110110011 h
b11111111111111111111111110010101 k
b1111111110110011 O
b1111111110110011 g
b1111111110010101 N
b1111111110010101 j
b100010 c
b100010 q
b100010 2"
b1111111111110111 b
b1111111111110111 r
b1111111111110111 3"
1,
#320000
0,
#325000
1W
09
1S
b11 \
b11111111111111111111111110110011 i
b11111111111111111111111110010101 l
b0 h
b0 k
0K
0M
1,
#330000
0,
#335000
1W
b1 e
b1111110 H
b1111110 ]
b1111110 m
b1111111111011001 I
b1111111111011001 ^
b1111111111011001 n
b1 7
b1 T
1,
#340000
0,
#345000
1W
b1111111101100000 H
b1111111101100000 ]
b1111111101100000 m
b1111111111010110 I
b1111111111010110 ^
b1111111111010110 n
b10 7
b10 T
b11 e
b1111110 |
b1111111111011001 ""
1,
#350000
0,
#355000
b100 X
1W
b10100101 7"
b111 e
b1111111110111111 H
b1111111110111111 ]
b1111111110111111 m
b11000000 I
b11000000 ^
b11000000 n
b11 7
b11 T
b1111111101011011 y
b1111111101011011 4"
b1111110 }
b1111111101100000 |
b1111111111011001 #"
b1111111111010110 ""
1,
#360000
0,
#365000
0W
b1110110 7"
b1000100 H
b1000100 ]
b1000100 m
b1111111111101110 I
b1111111111101110 ^
b1111111111101110 n
b0 7
b0 T
b100 \
b1111 e
b1111111101100000 }
b1111111110111111 |
b1111111111010110 #"
b11000000 ""
b1110110 y
b1110110 4"
b1111111111011001 $"
b1111110 ~
1,
#370000
0,
#375000
b111111 t
b111111 ?"
b111111 D"
b111111 E"
b1111111111101101 s
b1111111111101101 H"
b1111111111101101 M"
b10011 N"
b11111100000000 B"
b1111110 A"
b1001110000000 K"
b100111 J"
b100000001 7"
b11110 e
b1111110 !"
b1111110 >"
b1111111101100000 ~
b1111111111011001 %"
b1111111111011001 G"
b1111111111010110 $"
b100000001 y
b100000001 4"
b1111111110111111 }
b1000100 |
b11000000 #"
b1111111111101110 ""
1,
#380000
0,
#385000
b1111111111101011 s
b1111111111101011 H"
b1111111111101011 M"
b10101 N"
0w
b1111111110110000 t
b1111111110110000 ?"
b1111111110110000 D"
b1010000 E"
1C"
1a
b1010110 7"
b1010100000000 K"
b101010 J"
b101000000000000 B"
b10100000 A"
b111100 e
b1000100 }
b1111111111101110 #"
b1111111110101010 y
b1111111110101010 4"
b1111111111101101 1"
b1111111111010110 %"
b1111111111010110 G"
b11000000 $"
b111111 0"
b1111111101100000 !"
b1111111101100000 >"
b1111111110111111 ~
1,
#390000
0,
#395000
b1111111111100000 t
b1111111111100000 ?"
b1111111111100000 D"
b100000 E"
0v
b1100000 s
b1100000 H"
b1100000 M"
b1100000 N"
0L"
b10000010000000 B"
b1000001 A"
b110000000000000 K"
b11000000 J"
b1 f
b111000 e
b100010 h
b11111111111111111111111111110111 k
b111111 c
b111111 q
b111111 2"
b1111111110110000 0"
b1111111110111111 !"
b1111111110111111 >"
b1000100 ~
b1111111111101101 b
b1111111111101101 r
b1111111111101101 3"
b1111111111101011 1"
b11000000 %"
b11000000 G"
b1111111111101110 $"
1,
#400000
0,
#405000
0v
b1111111111110111 s
b1111111111110111 H"
b1111111111110111 M"
b1001 N"
1L"
0w
b100010 t
b100010 ?"
b100010 D"
b100010 E"
0C"
b100100000000 K"
b10010 J"
b10001000000000 B"
b1000100 A"
b1100001 h
b11111111111111111111111111100100 k
b110000 e
b10 f
b1111111111101011 b
b1111111111101011 r
b1111111111101011 3"
b1100000 1"
b1111111111101110 %"
b1111111111101110 G"
b1111111110110000 c
b1111111110110000 q
b1111111110110000 2"
b1111111111100000 0"
b1000100 !"
b1000100 >"
1,
#410000
0,
#415000
1d
b11 f
b100000 e
b10001 h
b11111111111111111111111111001111 k
b1111111111100000 c
b1111111111100000 q
b1111111111100000 2"
b100010 0"
b1100000 b
b1100000 r
b1100000 3"
b1111111111110111 1"
1,
#420000
0,
#425000
0d
0a
b11 X
b1111111111110001 ;
b1111111111110001 P
b101111 :
b101111 Q
19
b1111111111110001 O
b1111111111110001 g
b101111 N
b101111 j
b11111111111111111111111111110001 h
b101111 k
b0 e
1K
1M
b0 f
b1111111111110111 b
b1111111111110111 r
b1111111111110111 3"
b100010 c
b100010 q
b100010 2"
1,
#430000
0,
#435000
1W
09
0K
0M
b11111111111111111111111111110001 i
b101111 l
b0 h
b0 k
b1111111101111011 H
b1111111101111011 ]
b1111111101111011 m
b101100100 I
b101100100 ^
b101100100 n
b1 8
b1 R
0S
b11 \
1,
#440000
0,
#445000
1W
b1111111110000000 [
b1111111110000000 `
b1111111110000000 p
b101010111 H
b101010111 ]
b101010111 m
b1010111 I
b1010111 ^
b1010111 n
b1 7
b1 T
b1 e
b1111111101111011 |
b101100100 ""
1,
#450000
0,
#455000
1W
b10000000 [
b10000000 `
b10000000 p
b111101001 7"
b11 e
b10011 H
b10011 ]
b10011 m
b10111010 I
b10111010 ^
b10111010 n
b10 7
b10 T
b111101001 y
b111101001 4"
b1111111110000000 )"
b1111111101111011 }
b101010111 |
b101100100 #"
b1010111 ""
1,
#460000
0,
#465000
b100 X
1W
b1111111110000000 [
b1111111110000000 `
b1111111110000000 p
b100000000 7"
b10010010 H
b10010010 ]
b10010010 m
b1111111111011001 I
b1111111111011001 ^
b1111111111011001 n
b11 7
b11 T
b111 e
b1111111110000000 *"
b10000000 )"
b101010111 }
b10011 |
b1010111 #"
b10111010 ""
b1111111100000000 y
b1111111100000000 4"
b101100100 $"
b1111111101111011 ~
1,
#470000
0,
#475000
0w
b1111111110111110 t
b1111111110111110 ?"
b1111111110111110 D"
b1000010 E"
1C"
0v
b10110010 s
b10110010 H"
b10110010 M"
b10110010 N"
0L"
b10000000 [
b10000000 `
b10000000 p
0W
b100001010000000 B"
b10000101 A"
b1011001000000000 K"
b101100100 J"
b10100111 7"
b1111 e
b1111111101111011 H
b1111111101111011 ]
b1111111101111011 m
b101100100 I
b101100100 ^
b101100100 n
b0 7
b0 T
b100 \
b1111111101111011 !"
b1111111101111011 >"
b101010111 ~
b101100100 %"
b101100100 G"
b1010111 $"
b10100111 y
b10100111 4"
b1111111110000000 +"
b10000000 *"
b1111111110000000 )"
b10011 }
b10010010 |
b10111010 #"
b1111111111011001 ""
1,
#480000
0,
#485000
0v
b1111111111010101 s
b1111111111010101 H"
b1111111111010101 M"
b101011 N"
1L"
b1111111101010101 t
b1111111101010101 ?"
b1111111101010101 D"
b10101011 E"
b10111001 7"
b10000000 I"
b10101110000000 K"
b1010111 J"
b10000000 @"
b1010101110000000 B"
b101010111 A"
b11110 e
b10000000 +"
b1111111110000000 *"
b10000000 )"
b10010010 }
b1111111101111011 |
b1111111111011001 #"
b101100100 ""
b1111111101000111 y
b1111111101000111 4"
b10110010 1"
b1111111110000000 {
b1111111110000000 F"
b1010111 %"
b1010111 G"
b10111010 $"
b1111111110111110 0"
b1111111110000000 z
b1111111110000000 ="
b101010111 !"
b101010111 >"
b10011 ~
1,
#490000
0,
#495000
0w
b1001 t
b1001 ?"
b1001 D"
b1001 E"
0C"
0v
b1011101 s
b1011101 H"
b1011101 M"
b1011101 N"
0L"
1a
b10000000 @"
b100110000000 B"
b10011 A"
b10000000 I"
b101110100000000 K"
b10111010 J"
b111101001 7"
b111100 e
b1111111110111110 c
b1111111110111110 q
b1111111110111110 2"
b1111111101010101 0"
b10000000 z
b10000000 ="
b10011 !"
b10011 >"
b10010010 ~
b10110010 b
b10110010 r
b10110010 3"
b1111111111010101 1"
b10000000 {
b10000000 F"
b10111010 %"
b10111010 G"
b1111111111011001 $"
b111101001 y
b111101001 4"
b1111111110000000 +"
b10000000 *"
b1111111101111011 }
b101100100 #"
1,
#500000
0,
#505000
b10011 s
b10011 H"
b10011 M"
b10011 N"
0w
b1111111110110111 t
b1111111110110111 ?"
b1111111110110111 D"
b1001001 E"
1C"
b10000000 I"
b1001110000000 K"
b100111 J"
b10000000 @"
b100100100000000 B"
b10010010 A"
b11111111111111111111111110111110 h
b10110010 k
b111000 e
b1 f
b10000000 +"
b1111111111010101 b
b1111111111010101 r
b1111111111010101 3"
b1011101 1"
b1111111110000000 {
b1111111110000000 F"
b1111111111011001 %"
b1111111111011001 G"
b101100100 $"
b1111111101010101 c
b1111111101010101 q
b1111111101010101 2"
b1001 0"
b1111111110000000 z
b1111111110000000 ="
b10010010 !"
b10010010 >"
b1111111101111011 ~
1,
#510000
0,
#515000
b1111111110111110 t
b1111111110111110 ?"
b1111111110111110 D"
b1000010 E"
b10110010 s
b10110010 H"
b10110010 M"
b10110010 N"
b10000000 @"
b100001010000000 B"
b10000101 A"
b10000000 I"
b1011001000000000 K"
b101100100 J"
b10 f
b110000 e
b11111111111111111111111100010011 h
b10000111 k
b1001 c
b1001 q
b1001 2"
b1111111110110111 0"
b10000000 z
b10000000 ="
b1111111101111011 !"
b1111111101111011 >"
b1011101 b
b1011101 r
b1011101 3"
b10011 1"
b10000000 {
b10000000 F"
b101100100 %"
b101100100 G"
1,
#520000
0,
#525000
1d
b11111111111111111111111100011100 h
b11100100 k
b100000 e
b11 f
b10011 b
b10011 r
b10011 3"
b10110010 1"
b1111111110110111 c
b1111111110110111 q
b1111111110110111 2"
b1111111110111110 0"
1,
#530000
0,
#535000
0d
0a
b11 X
b1111111011010011 ;
b1111111011010011 P
b11110111 :
b11110111 Q
19
b0 f
b0 e
1K
1M
b11111111111111111111111011010011 h
b11110111 k
b1111111011010011 O
b1111111011010011 g
b11110111 N
b11110111 j
b1111111110111110 c
b1111111110111110 q
b1111111110111110 2"
b10110010 b
b10110010 r
b10110010 3"
1,
#540000
0,
#545000
1W
09
1S
b11 \
b11111111111111111111111011010011 i
b11110111 l
b0 h
b0 k
0K
0M
1,
#550000
0,
#555000
1W
b1 e
b101010111 H
b101010111 ]
b101010111 m
b1010111 I
b1010111 ^
b1010111 n
b1 7
b1 T
1,
#560000
0,
#565000
1W
b10011 H
b10011 ]
b10011 m
b10111010 I
b10111010 ^
b10111010 n
b10 7
b10 T
b11 e
b101010111 |
b1010111 ""
1,
#570000
0,
#575000
b100 X
1W
b100000000 7"
b111 e
b10010010 H
b10010010 ]
b10010010 m
b1111111111011001 I
b1111111111011001 ^
b1111111111011001 n
b11 7
b11 T
b1111111100000000 y
b1111111100000000 4"
b101010111 }
b10011 |
b1010111 #"
b10111010 ""
1,
#580000
0,
#585000
0W
b10100111 7"
b1111111101111011 H
b1111111101111011 ]
b1111111101111011 m
b101100100 I
b101100100 ^
b101100100 n
b0 7
b0 T
b100 \
b1111 e
b10011 }
b10010010 |
b10111010 #"
b1111111111011001 ""
b10100111 y
b10100111 4"
b1010111 $"
b101010111 ~
1,
#590000
0,
#595000
0w
b10101011 t
b10101011 ?"
b10101011 D"
b10101011 E"
0C"
b101011 s
b101011 H"
b101011 M"
b101011 N"
b1010101110000000 B"
b101010111 A"
b10101110000000 K"
b1010111 J"
b10111001 7"
b11110 e
b101010111 !"
b101010111 >"
b10011 ~
b1010111 %"
b1010111 G"
b10111010 $"
b1111111101000111 y
b1111111101000111 4"
b10010010 }
b1111111101111011 |
b1111111111011001 #"
b101100100 ""
1,
#600000
0,
