tb.vcd
$date
	Wed Oct  8 00:17:47 2025
$end
$version
	Icarus Verilog
$end
$timescale
	1ps
$end
$scope module tb_x_calculate $end
$var wire 16 ! xQ2_out [15:0] $end
$var wire 16 " xQ1_out [15:0] $end
$var wire 16 # xI2_out [15:0] $end
$var wire 16 $ xI1_out [15:0] $end
$var wire 1 % done $end
$var reg 16 & H_in_i [15:0] $end
$var reg 16 ' H_in_r [15:0] $end
$var reg 1 ( H_in_valid $end
$var reg 16 ) Y_in_i [15:0] $end
$var reg 16 * Y_in_r [15:0] $end
$var reg 1 + Y_in_valid $end
$var reg 1 , clk $end
$var reg 4 - q_index [3:0] $end
$var reg 1 . rst $end
$var reg 1 / start $end
$scope module dut $end
$var wire 16 0 H_in_i [15:0] $end
$var wire 16 1 H_in_r [15:0] $end
$var wire 1 ( H_in_valid $end
$var wire 16 2 Y_in_i [15:0] $end
$var wire 16 3 Y_in_r [15:0] $end
$var wire 1 + Y_in_valid $end
$var wire 1 , clk $end
$var wire 1 4 load_H_done $end
$var wire 4 5 q_index [3:0] $end
$var wire 1 . rst $end
$var wire 1 / start_new_q $end
$var wire 1 6 load_Y_done $end
$var wire 2 7 k_counter [1:0] $end
$var wire 2 8 i_counter [1:0] $end
$var wire 1 9 hq_valid $end
$var wire 16 : hq_r [15:0] $end
$var wire 16 ; hq_i [15:0] $end
$var wire 1 < hq_done $end
$var wire 16 = dh_in_r [15:0] $end
$var wire 16 > dh_in_i [15:0] $end
$var wire 1 ? all_16_hq_done $end
$var wire 1 @ Dh_result_valid $end
$var wire 16 A Dh_out [15:0] $end
$var reg 2 B load_col_cnt [1:0] $end
$var reg 2 C load_row_cnt [1:0] $end
$var reg 2 D next_state [1:0] $end
$var reg 1 % q_done $end
$var reg 1 E start_hq_calc $end
$var reg 2 F state [1:0] $end
$var reg 16 G xI1_out [15:0] $end
$var reg 16 H xI2_out [15:0] $end
$var reg 16 I xQ1_out [15:0] $end
$var reg 16 J xQ2_out [15:0] $end
$var reg 3 K y_count [2:0] $end
$scope module dh_calc_inst $end
$var wire 1 , clk $end
$var wire 16 L in_im [15:0] $end
$var wire 16 M in_real [15:0] $end
$var wire 1 N internal_clear $end
$var wire 1 . rst $end
$var wire 16 O product_r [15:0] $end
$var wire 16 P product_i [15:0] $end
$var wire 1 Q ovr_multr $end
$var wire 1 R ovr_multi $end
$var wire 17 S SoP [16:0] $end
$var wire 1 9 Dh_en $end
$var reg 16 T Dh_out [15:0] $end
$var reg 1 @ Dh_result_valid $end
$var reg 3 U dh_count [2:0] $end
$var reg 35 V dh_reg [34:0] $end
$scope module qmult_im $end
$var wire 16 W i_multiplicand [15:0] $end
$var wire 16 X i_multiplier [15:0] $end
$var wire 16 Y temp_multiplicand [15:0] $end
$var wire 16 Z temp_meltiplier [15:0] $end
$var wire 32 [ r_result [31:0] $end
$var wire 16 \ o_result [15:0] $end
$var reg 1 ] is_signed $end
$var reg 1 R ovr $end
$var reg 16 ^ r_RetVal [15:0] $end
$var reg 16 _ temp_RetVal [15:0] $end
$upscope $end
$scope module qmult_real $end
$var wire 16 ` i_multiplicand [15:0] $end
$var wire 16 a i_multiplier [15:0] $end
$var wire 16 b temp_multiplicand [15:0] $end
$var wire 16 c temp_meltiplier [15:0] $end
$var wire 32 d r_result [31:0] $end
$var wire 16 e o_result [15:0] $end
$var reg 1 f is_signed $end
$var reg 1 Q ovr $end
$var reg 16 g r_RetVal [15:0] $end
$var reg 16 h temp_RetVal [15:0] $end
$upscope $end
$upscope $end
$scope module hq_calc_inst $end
$var wire 16 i H_in_i [15:0] $end
$var wire 16 j H_in_r [15:0] $end
$var wire 1 k H_in_valid $end
$var wire 1 , clk $end
$var wire 1 l mac_clear $end
$var wire 4 m q_index [3:0] $end
$var wire 1 . rst $end
$var wire 1 E start $end
$var wire 1 n mac_result_valid $end
$var wire 16 o mac_result_r [15:0] $end
$var wire 16 p mac_result_i [15:0] $end
$var reg 16 q Hq_out_i [15:0] $end
$var reg 16 r Hq_out_r [15:0] $end
$var reg 1 9 Hq_out_valid $end
$var reg 1 ? all_16_hq_done $end
$var reg 1 < hq_one_matrix_done $end
$var reg 2 s i_counter [1:0] $end
$var reg 1 t j_counter $end
$var reg 2 u k_counter [1:0] $end
$var reg 2 v load_col_cnt [1:0] $end
$var reg 2 w load_row_cnt [1:0] $end
$var reg 1 x mac_en $end
$var reg 4 y next_state [3:0] $end
$var reg 4 z q_counter_reg [3:0] $end
$var reg 16 { s_data_i [15:0] $end
$var reg 16 | s_data_r [15:0] $end
$var reg 4 } state [3:0] $end
$scope module c_mac_inst $end
$var wire 1 , clk $end
$var wire 16 ~ in_ai [15:0] $end
$var wire 16 !" in_ar [15:0] $end
$var wire 16 "" in_bi [15:0] $end
$var wire 16 #" in_br [15:0] $end
$var wire 1 l mac_clear $end
$var wire 1 x mac_en $end
$var wire 1 . rst $end
$var wire 1 $" product_valid $end
$var wire 16 %" product_r [15:0] $end
$var wire 16 &" product_i [15:0] $end
$var wire 1 '" mac_rs_valid $end
$var reg 6 (" data_valid_pipe [5:0] $end
$var reg 2 )" mac_counter [1:0] $end
$var reg 16 *" mac_i_out [15:0] $end
$var reg 32 +" mac_i_reg [31:0] $end
$var reg 32 ," mac_i_tmp [31:0] $end
$var reg 16 -" mac_r_out [15:0] $end
$var reg 32 ." mac_r_reg [31:0] $end
$var reg 32 /" mac_r_tmp [31:0] $end
$var reg 1 n mac_result_valid $end
$scope module cmult_inst $end
$var wire 16 0" ai [15:0] $end
$var wire 16 1" ar [15:0] $end
$var wire 16 2" bi [15:0] $end
$var wire 16 3" br [15:0] $end
$var wire 1 , clk $end
$var wire 16 4" pi [15:0] $end
$var wire 16 5" pr [15:0] $end
$var wire 1 . rst $end
$var wire 16 6" tmp_multr [15:0] $end
$var wire 16 7" tmp_multi [15:0] $end
$var wire 16 8" tmp_mult0 [15:0] $end
$var wire 1 9" ovr_multr $end
$var wire 1 :" ovr_multi $end
$var wire 1 ;" ovr_mult0 $end
$var reg 16 <" addcommon [15:0] $end
$var reg 16 =" addi [15:0] $end
$var reg 16 >" addr [15:0] $end
$var reg 16 ?" ai_d [15:0] $end
$var reg 16 @" ai_dd [15:0] $end
$var reg 16 A" ai_ddd [15:0] $end
$var reg 16 B" ai_dddd [15:0] $end
$var reg 16 C" ar_d [15:0] $end
$var reg 16 D" ar_dd [15:0] $end
$var reg 16 E" ar_ddd [15:0] $end
$var reg 16 F" ar_dddd [15:0] $end
$var reg 16 G" bi_d [15:0] $end
$var reg 16 H" bi_dd [15:0] $end
$var reg 16 I" bi_ddd [15:0] $end
$var reg 16 J" br_d [15:0] $end
$var reg 16 K" br_dd [15:0] $end
$var reg 16 L" br_ddd [15:0] $end
$var reg 16 M" common [15:0] $end
$var reg 16 N" commonr1 [15:0] $end
$var reg 16 O" commonr2 [15:0] $end
$var reg 16 P" mult0 [15:0] $end
$var reg 16 Q" multi [15:0] $end
$var reg 16 R" multr [15:0] $end
$var reg 16 S" pi_int [15:0] $end
$var reg 16 T" pr_int [15:0] $end
$scope module qmult_common $end
$var wire 16 U" i_multiplicand [15:0] $end
$var wire 16 V" i_multiplier [15:0] $end
$var wire 16 W" o_result [15:0] $end
$var wire 16 X" temp_multiplicand [15:0] $end
$var wire 16 Y" temp_meltiplier [15:0] $end
$var wire 32 Z" r_result [31:0] $end
$var reg 1 [" is_signed $end
$var reg 1 ;" ovr $end
$var reg 16 \" r_RetVal [15:0] $end
$var reg 16 ]" temp_RetVal [15:0] $end
$upscope $end
$scope module qmult_imag $end
$var wire 16 ^" i_multiplicand [15:0] $end
$var wire 16 _" i_multiplier [15:0] $end
$var wire 16 `" o_result [15:0] $end
$var wire 16 a" temp_multiplicand [15:0] $end
$var wire 16 b" temp_meltiplier [15:0] $end
$var wire 32 c" r_result [31:0] $end
$var reg 1 d" is_signed $end
$var reg 1 :" ovr $end
$var reg 16 e" r_RetVal [15:0] $end
$var reg 16 f" temp_RetVal [15:0] $end
$upscope $end
$scope module qmult_real $end
$var wire 16 g" i_multiplicand [15:0] $end
$var wire 16 h" i_multiplier [15:0] $end
$var wire 16 i" o_result [15:0] $end
$var wire 16 j" temp_multiplicand [15:0] $end
$var wire 16 k" temp_meltiplier [15:0] $end
$var wire 32 l" r_result [31:0] $end
$var reg 1 m" is_signed $end
$var reg 1 9" ovr $end
$var reg 16 n" r_RetVal [15:0] $end
$var reg 16 o" temp_RetVal [15:0] $end
$upscope $end
$upscope $end
$upscope $end
$scope begin sq_block $end
$upscope $end
$upscope $end
$upscope $end
$scope task drive_h_matrix $end
$var integer 32 p" i [31:0] $end
$var integer 32 q" j [31:0] $end
$upscope $end
$scope task drive_y_matrix $end
$var integer 32 r" i [31:0] $end
$upscope $end
$scope task generate_y_matrix $end
$upscope $end
$scope task initialize_signals $end
$upscope $end
$scope task read_h_matrix_from_file $end
$var reg 16 s" temp_data [15:0] $end
$var integer 32 t" dummy [31:0] $end
$var integer 32 u" h_imag_fd [31:0] $end
$var integer 32 v" h_real_fd [31:0] $end
$var integer 32 w" i [31:0] $end
$var integer 32 x" j [31:0] $end
$upscope $end
$scope task reset_dut $end
$upscope $end
$upscope $end
$enddefinitions $end
#0
$dumpvars
bx x"
bx w"
bx v"
bx u"
bx t"
bx s"
bx r"
bx q"
bx p"
bx o"
bx n"
xm"
bx l"
bx k"
bx j"
bx i"
bx h"
bx g"
bx f"
bx e"
xd"
bx c"
bx b"
bx a"
bx `"
bx _"
bx ^"
bx ]"
bx \"
x["
bx Z"
bx Y"
bx X"
bx W"
bx V"
bx U"
bx T"
bx S"
bx R"
bx Q"
bx P"
bx O"
bx N"
bx M"
bx L"
bx K"
bx J"
bx I"
bx H"
bx G"
bx F"
bx E"
bx D"
bx C"
bx B"
bx A"
bx @"
bx ?"
bx >"
bx ="
bx <"
x;"
x:"
x9"
bx 8"
bx 7"
bx 6"
bx 5"
bx 4"
b10000000 3"
b0 2"
bx 1"
bx 0"
bx /"
b0 ."
b0 -"
bx ,"
b0 +"
b0 *"
b0 )"
b0 ("
0'"
bx &"
bx %"
0$"
b10000000 #"
b0 ""
bx !"
bx ~
b0 }
b10000000 |
b0 {
b0 z
b11 y
0x
b0 w
b0 v
b0 u
0t
b0 s
b0 r
b0 q
b0 p
b0 o
xn
b0 m
xl
1k
bx j
bx i
bx h
bx g
xf
bx e
bx d
bx c
bx b
bx a
bx `
bx _
bx ^
x]
bx \
bx [
bx Z
bx Y
bx X
bx W
b0 V
b0 U
b0 T
bx S
xR
xQ
bx P
bx O
0N
bx M
bx L
b0 K
b0 J
b0 I
b0 H
b0 G
b0 F
1E
b0 D
b0 C
b0 B
b0 A
0@
0?
bx >
bx =
0<
b0 ;
b0 :
09
b0 8
b0 7
06
b0 5
04
bx 3
bx 2
b0 1
b0 0
0/
1.
b0 -
0,
x+
bx *
bx )
0(
b0 '
b0 &
0%
b0 $
b0 #
b0 "
b0 !
$end
#5000
b0 G"
b0 J"
b0 ?"
b0 C"
1,
#10000
0,
#15000
b0 X"
b0 <"
b0 U"
1,
#20000
b0 y
0E
0,
0.
#25000
0;"
b0 8"
b0 W"
b0 \"
b0 ]"
0["
b0 Z"
b0 Y"
0l
0n
b0 H"
b0 V"
b0 K"
b10000000 J"
b0 @"
bx ?"
b0 D"
bx C"
1,
#30000
0,
#35000
x;"
bx 8"
bx W"
bx \"
b0xxxxxxxxxxxxxxx ]"
x["
bx Z"
bx X"
b0 A"
b0 E"
b0 P"
bx <"
bx U"
b0 I"
b0 L"
b10000000 K"
bx @"
bx D"
1,
#40000
b1 D
0,
1/
#45000
09"
b0 6"
b0 i"
b0 n"
b0 o"
0m"
0:"
b0 7"
b0 `"
b0 e"
b0 f"
0d"
b0 l"
b0 j"
b0 k"
b0 c"
b0 a"
b0 b"
b1 F
b10000000 L"
b0 M"
bx P"
b0 >"
b0 g"
b0 F"
b0 h"
bx E"
b0 ="
b0 ^"
b0 B"
b0 _"
bx A"
b1 D
b1 t"
b1000110 s"
b100 w"
b100 x"
b10000000000000000000000000000100 u"
b10000000000000000000000000000011 v"
0/
1,
#50000
0,
#55000
x:"
bx 7"
bx `"
bx e"
b0xxxxxxxxxxxxxxx f"
xd"
x9"
bx 6"
bx i"
bx n"
b0xxxxxxxxxxxxxxx o"
xm"
b10000000 a"
bx c"
bx b"
b10000000 j"
bx l"
bx k"
b1 K
b1 B
b1000100 i
b1000100 ~
b1000100 0"
b1111111111101110 j
b1111111111101110 !"
b1111111111101110 1"
b0 O"
b0 Q"
b10000000 ="
b10000000 ^"
bx B"
bx _"
b0 N"
b0 R"
b10000000 >"
b10000000 g"
bx F"
bx h"
bx M"
b100000000 )
b100000000 2
b100000000 *
b100000000 3
1+
b0 r"
b1000100 &
b1000100 0
b1111111111101110 '
b1111111111101110 1
1(
b0 q"
b0 p"
1,
#60000
0,
#65000
b10 K
b10 B
b1000100 ?"
b1111111111101110 C"
b0 %"
b0 5"
b0 T"
bx N"
bx R"
b0 &"
b0 4"
b0 S"
bx O"
bx Q"
b1111110 &
b1111110 0
b1111111111011001 '
b1111111111011001 1
b1 q"
b1000000000 )
b1000000000 2
b1000000000 *
b1000000000 3
b1 r"
1,
#70000
0,
#75000
0;"
b0 8"
b0 W"
b0 \"
b0 ]"
1["
b0 Z"
b1010110 X"
b11 K
b11 B
bx &"
bx 4"
bx S"
bx %"
bx 5"
bx T"
b1111111110101010 <"
b1111111110101010 U"
b1000100 @"
b1111111111101110 D"
b1100000000 )
b1100000000 2
b1100000000 *
b1100000000 3
b10 r"
b1111111101100000 &
b1111111101100000 0
b1111111111010110 '
b1111111111010110 1
b10 q"
1,
#80000
0,
#85000
b100 K
b1 C
b0 B
b0 P"
b1111111111101110 E"
b1000100 A"
b1111111110111111 &
b1111111110111111 0
b11000000 '
b11000000 1
b11 q"
b100000000 )
b100000000 2
b100000000 *
b100000000 3
b11 r"
1,
#90000
0,
#95000
0:"
b100010 7"
b100010 `"
b100010 e"
b100010 f"
0d"
09"
b1111111111110111 6"
b1111111111110111 i"
b1111111111110111 n"
b1001 o"
1m"
b10001000000000 c"
b100100000000 l"
b1000100 b"
b10010 k"
b101 K
b1 B
b1000100 B"
b1000100 _"
b1111111111101110 F"
b1111111111101110 h"
b0 M"
b100 r"
b1111111101111011 &
b1111111101111011 0
b101100100 '
b101100100 1
b1 p"
b0 q"
1,
#100000
0,
#105000
b110 K
b10 B
b0 N"
b1111111111110111 R"
b0 O"
b100010 Q"
b101010111 &
b101010111 0
b1010111 '
b1010111 1
b1 q"
b1000000000 )
b1000000000 2
b101 r"
1,
#110000
0,
#115000
16
b111 K
b11 B
b100010 &"
b100010 4"
b100010 S"
b1111111111110111 %"
b1111111111110111 5"
b1111111111110111 T"
b1100000000 )
b1100000000 2
b110 r"
b10011 &
b10011 0
b10111010 '
b10111010 1
b10 q"
1,
#120000
0,
#125000
b10 C
b0 B
06
b0 K
b10010010 &
b10010010 0
b1111111111011001 '
b1111111111011001 1
b11 q"
b10000000000 )
b10000000000 2
b111 r"
1,
#130000
0,
#135000
b1 B
0+
b1000 r"
b1001110 &
b1001110 0
b101010010 '
b101010010 1
b10 p"
b0 q"
1,
#140000
0,
#145000
b10 B
b1111111110111101 &
b1111111110111101 0
b111000010 '
b111000010 1
b1 q"
1,
#150000
0,
#155000
b11 B
b1111111100111001 &
b1111111100111001 0
b1111111011010001 '
b1111111011010001 1
b10 q"
1,
#160000
0,
#165000
b11 C
b0 B
b10000010 &
b10000010 0
b1111111110100011 '
b1111111110100011 1
b11 q"
1,
#170000
0,
#175000
b1 B
b1111111101010101 &
b1111111101010101 0
b1111111111000000 '
b1111111111000000 1
b11 p"
b0 q"
1,
#180000
0,
#185000
b10 B
b1111111011111111 &
b1111111011111111 0
b10001101 '
b10001101 1
b1 q"
1,
#190000
0,
#195000
b10 D
14
b11 B
b11001 &
b11001 0
b1111111100010100 '
b1111111100010100 1
b10 q"
1,
#200000
0,
#205000
04
b11 y
b0 C
b0 B
1E
b10 F
b1000110 &
b1000110 0
b110 '
b110 1
b11 q"
1,
#210000
0,
#215000
1x
b11 }
0E
0(
b100 p"
b100 q"
1,
#220000
0,
#225000
1x
b1111111110000000 |
b1111111110000000 #"
b1111111110000000 3"
b1111110 i
b1111110 ~
b1111110 0"
b1111111111011001 j
b1111111111011001 !"
b1111111111011001 1"
b1 7
b1 u
b1 ("
1,
#230000
0,
#235000
1x
b10000000 |
b10000000 #"
b10000000 3"
b11 ("
b1111111101100000 i
b1111111101100000 ~
b1111111101100000 0"
b1111111111010110 j
b1111111111010110 !"
b1111111111010110 1"
b10 7
b10 u
b1111111110000000 J"
b1111110 ?"
b1111111111011001 C"
1,
#240000
0,
#245000
b100 y
1x
b1111111110000000 |
b1111111110000000 #"
b1111111110000000 3"
b10100101 X"
b1111111110111111 i
b1111111110111111 ~
b1111111110111111 0"
b11000000 j
b11000000 !"
b11000000 1"
b11 7
b11 u
b111 ("
b1111111110000000 K"
b10000000 J"
b1111110 @"
b1111111101100000 ?"
b1111111111011001 D"
b1111111111010110 C"
b1111111101011011 <"
b1111111101011011 U"
1,
#250000
0,
#255000
b10000000 |
b10000000 #"
b10000000 3"
0x
b1110110 X"
b1111 ("
b1000100 i
b1000100 ~
b1000100 0"
b1111111111101110 j
b1111111111101110 !"
b1111111111101110 1"
b0 7
b0 u
b100 }
b1111110 A"
b1111111111011001 E"
b1110110 <"
b1110110 U"
b1111111110000000 L"
b10000000 K"
b1111111110000000 J"
b1111111101100000 @"
b1111111110111111 ?"
b1111111111010110 D"
b11000000 C"
1,
#260000
0,
#265000
09"
b10011 6"
b10011 i"
b10011 n"
b10011 o"
0m"
0:"
b1111111111000001 7"
b1111111111000001 `"
b1111111111000001 e"
b111111 f"
1d"
b100000001 X"
b10000000 j"
b1001110000000 l"
b100111 k"
b10000000 a"
b11111100000000 c"
b1111110 b"
b11110 ("
b10000000 L"
b1111111110000000 K"
b10000000 J"
b1111111110111111 @"
b1000100 ?"
b11000000 D"
b1111111111101110 C"
b100000001 <"
b100000001 U"
b1111111110000000 >"
b1111111110000000 g"
b1111111111011001 F"
b1111111111011001 h"
b1111111111010110 E"
b1111111110000000 ="
b1111111110000000 ^"
b1111110 B"
b1111110 _"
b1111111101100000 A"
1,
#270000
0,
#275000
b1111111110110000 7"
b1111111110110000 `"
b1111111110110000 e"
b1010000 f"
09"
b1111111111101011 6"
b1111111111101011 i"
b1111111111101011 n"
b10101 o"
1m"
1$"
b10000000 a"
b101000000000000 c"
b10100000 b"
b10000000 j"
b1010100000000 l"
b101010 k"
b1010110 X"
b111100 ("
b1111111111000001 Q"
b10000000 ="
b10000000 ^"
b1111111101100000 B"
b1111111101100000 _"
b1111111110111111 A"
b10011 R"
b10000000 >"
b10000000 g"
b1111111111010110 F"
b1111111111010110 h"
b11000000 E"
b1111111110101010 <"
b1111111110101010 U"
b1111111110000000 L"
b10000000 K"
b1000100 @"
b1111111111101110 D"
1,
#280000
0,
#285000
b1111111110100000 6"
b1111111110100000 i"
b1111111110100000 n"
b1100000 o"
0:"
b100000 7"
b100000 `"
b100000 e"
b100000 f"
0d"
b10000000 j"
b110000000000000 l"
b11000000 k"
b10000000 a"
b10000010000000 c"
b1000001 b"
b100010 +"
b11111111111111111111111111110111 ."
b111000 ("
b1 )"
b10000000 L"
b10011 %"
b10011 5"
b10011 T"
b1111111111101011 R"
b1111111110000000 >"
b1111111110000000 g"
b11000000 F"
b11000000 h"
b1111111111101110 E"
b1111111111000001 &"
b1111111111000001 4"
b1111111111000001 S"
b1111111110110000 Q"
b1111111110000000 ="
b1111111110000000 ^"
b1111111110111111 B"
b1111111110111111 _"
b1000100 A"
1,
#290000
0,
#295000
b100010 7"
b100010 `"
b100010 e"
b100010 f"
b1111111111110111 6"
b1111111111110111 i"
b1111111111110111 n"
b1001 o"
b10000000 a"
b10001000000000 c"
b1000100 b"
b10000000 j"
b100100000000 l"
b10010 k"
b10 )"
b110000 ("
b11111111111111111111111111100011 +"
b1010 ."
b1111111110110000 &"
b1111111110110000 4"
b1111111110110000 S"
b100000 Q"
b10000000 ="
b10000000 ^"
b1000100 B"
b1000100 _"
b1111111111101011 %"
b1111111111101011 5"
b1111111111101011 T"
b1111111110100000 R"
b10000000 >"
b10000000 g"
b1111111111101110 F"
b1111111111101110 h"
1,
#300000
0,
#305000
1'"
b11111111111111111111111110010011 +"
b11111111111111111111111111110101 ."
b100000 ("
b11 )"
b1111111110100000 %"
b1111111110100000 5"
b1111111110100000 T"
b1111111111110111 R"
b100000 &"
b100000 4"
b100000 S"
b100010 Q"
1,
#310000
0,
#315000
0R
b1000011 S
b10111 P
b10111 \
b10111 ^
b10111 _
0]
0Q
b101100 O
b101100 e
b101100 g
b101100 h
0f
b1011100101001 [
b10110010111001 d
0'"
b1001101 Y
b1001101 Z
b1101011 b
b1101011 c
b1111111110110011 >
b1111111110110011 L
b1111111110110011 W
b1111111110110011 X
b1111111110010101 =
b1111111110010101 M
b1111111110010101 `
b1111111110010101 a
0$"
b11 y
b1111111110110011 ;
b1111111110110011 q
b1111111110010101 :
b1111111110010101 r
19
b0 )"
b0 ("
1l
1n
b11111111111111111111111110110011 +"
b11111111111111111111111110010101 ."
b1111111110110011 p
b1111111110110011 *"
b1111111110010101 o
b1111111110010101 -"
b100010 &"
b100010 4"
b100010 S"
b1111111111110111 %"
b1111111111110111 5"
b1111111111110111 T"
1,
#320000
0,
#325000
1x
09
b1 U
b1000011 V
1t
b11 }
b11111111111111111111111110110011 ,"
b11111111111111111111111110010101 /"
b0 +"
b0 ."
0l
0n
1,
#330000
0,
#335000
1x
b1 ("
b1111110 i
b1111110 ~
b1111110 0"
b1111111111011001 j
b1111111111011001 !"
b1111111111011001 1"
b1 7
b1 u
1,
#340000
0,
#345000
1x
b1111111101100000 i
b1111111101100000 ~
b1111111101100000 0"
b1111111111010110 j
b1111111111010110 !"
b1111111111010110 1"
b10 7
b10 u
b11 ("
b1111110 ?"
b1111111111011001 C"
1,
#350000
0,
#355000
b100 y
1x
b10100101 X"
b111 ("
b1111111110111111 i
b1111111110111111 ~
b1111111110111111 0"
b11000000 j
b11000000 !"
b11000000 1"
b11 7
b11 u
b1111111101011011 <"
b1111111101011011 U"
b1111110 @"
b1111111101100000 ?"
b1111111111011001 D"
b1111111111010110 C"
1,
#360000
0,
#365000
0x
b1110110 X"
b1000100 i
b1000100 ~
b1000100 0"
b1111111111101110 j
b1111111111101110 !"
b1111111111101110 1"
b0 7
b0 u
b100 }
b1111 ("
b1111111101100000 @"
b1111111110111111 ?"
b1111111111010110 D"
b11000000 C"
b1110110 <"
b1110110 U"
b1111111111011001 E"
b1111110 A"
1,
#370000
0,
#375000
b111111 7"
b111111 `"
b111111 e"
b111111 f"
b1111111111101101 6"
b1111111111101101 i"
b1111111111101101 n"
b10011 o"
b11111100000000 c"
b1111110 b"
b1001110000000 l"
b100111 k"
b100000001 X"
b11110 ("
b1111110 B"
b1111110 _"
b1111111101100000 A"
b1111111111011001 F"
b1111111111011001 h"
b1111111111010110 E"
b100000001 <"
b100000001 U"
b1111111110111111 @"
b1000100 ?"
b11000000 D"
b1111111111101110 C"
1,
#380000
0,
#385000
b1111111111101011 6"
b1111111111101011 i"
b1111111111101011 n"
b10101 o"
0:"
b1111111110110000 7"
b1111111110110000 `"
b1111111110110000 e"
b1010000 f"
1d"
1$"
b1010110 X"
b1010100000000 l"
b101010 k"
b101000000000000 c"
b10100000 b"
b111100 ("
b1000100 @"
b1111111111101110 D"
b1111111110101010 <"
b1111111110101010 U"
b1111111111101101 R"
b1111111111010110 F"
b1111111111010110 h"
b11000000 E"
b111111 Q"
b1111111101100000 B"
b1111111101100000 _"
b1111111110111111 A"
1,
#390000
0,
#395000
b1111111111100000 7"
b1111111111100000 `"
b1111111111100000 e"
b100000 f"
09"
b1100000 6"
b1100000 i"
b1100000 n"
b1100000 o"
0m"
b10000010000000 c"
b1000001 b"
b110000000000000 l"
b11000000 k"
b1 )"
b111000 ("
b100010 +"
b11111111111111111111111111110111 ."
b111111 &"
b111111 4"
b111111 S"
b1111111110110000 Q"
b1111111110111111 B"
b1111111110111111 _"
b1000100 A"
b1111111111101101 %"
b1111111111101101 5"
b1111111111101101 T"
b1111111111101011 R"
b11000000 F"
b11000000 h"
b1111111111101110 E"
1,
#400000
0,
#405000
09"
b1111111111110111 6"
b1111111111110111 i"
b1111111111110111 n"
b1001 o"
1m"
0:"
b100010 7"
b100010 `"
b100010 e"
b100010 f"
0d"
b100100000000 l"
b10010 k"
b10001000000000 c"
b1000100 b"
b1100001 +"
b11111111111111111111111111100100 ."
b110000 ("
b10 )"
b1111111111101011 %"
b1111111111101011 5"
b1111111111101011 T"
b1100000 R"
b1111111111101110 F"
b1111111111101110 h"
b1111111110110000 &"
b1111111110110000 4"
b1111111110110000 S"
b1111111111100000 Q"
b1000100 B"
b1000100 _"
1,
#410000
0,
#415000
1'"
b11 )"
b100000 ("
b10001 +"
b11111111111111111111111111001111 ."
b1111111111100000 &"
b1111111111100000 4"
b1111111111100000 S"
b100010 Q"
b1100000 %"
b1100000 5"
b1100000 T"
b1111111111110111 R"
1,
#420000
0,
#425000
b0 P
b0 \
b0 ^
b0 _
b1000 S
b1000 O
b1000 e
b1000 g
b1000 h
b1111 Y
b11100001 [
b1111 Z
b101111 b
b100010100001 d
b101111 c
0'"
b1111111111110001 >
b1111111111110001 L
b1111111111110001 W
b1111111111110001 X
b101111 =
b101111 M
b101111 `
b101111 a
0$"
b11 y
b1111111111110001 ;
b1111111111110001 q
b101111 :
b101111 r
19
b1111111111110001 p
b1111111111110001 *"
b101111 o
b101111 -"
b11111111111111111111111111110001 +"
b101111 ."
b0 ("
1l
1n
b0 )"
b1111111111110111 %"
b1111111111110111 5"
b1111111111110111 T"
b100010 &"
b100010 4"
b100010 S"
1,
#430000
0,
#435000
1x
09
0l
0n
b11111111111111111111111111110001 ,"
b101111 /"
b0 +"
b0 ."
b1111111101111011 i
b1111111101111011 ~
b1111111101111011 0"
b101100100 j
b101100100 !"
b101100100 1"
b1 8
b1 s
0t
b11 }
b10 U
b1001011 V
1,
#440000
0,
#445000
1x
b1111111110000000 |
b1111111110000000 #"
b1111111110000000 3"
b101010111 i
b101010111 ~
b101010111 0"
b1010111 j
b1010111 !"
b1010111 1"
b1 7
b1 u
b1 ("
b1111111101111011 ?"
b101100100 C"
1,
#450000
0,
#455000
1x
b10000000 |
b10000000 #"
b10000000 3"
b111101001 X"
b11 ("
b10011 i
b10011 ~
b10011 0"
b10111010 j
b10111010 !"
b10111010 1"
b10 7
b10 u
b111101001 <"
b111101001 U"
b1111111110000000 J"
b1111111101111011 @"
b101010111 ?"
b101100100 D"
b1010111 C"
1,
#460000
0,
#465000
b100 y
1x
b1111111110000000 |
b1111111110000000 #"
b1111111110000000 3"
b100000000 X"
b10010010 i
b10010010 ~
b10010010 0"
b1111111111011001 j
b1111111111011001 !"
b1111111111011001 1"
b11 7
b11 u
b111 ("
b1111111110000000 K"
b10000000 J"
b101010111 @"
b10011 ?"
b1010111 D"
b10111010 C"
b1111111100000000 <"
b1111111100000000 U"
b101100100 E"
b1111111101111011 A"
1,
#470000
0,
#475000
0:"
b1111111110111110 7"
b1111111110111110 `"
b1111111110111110 e"
b1000010 f"
1d"
09"
b10110010 6"
b10110010 i"
b10110010 n"
b10110010 o"
0m"
b10000000 |
b10000000 #"
b10000000 3"
0x
b100001010000000 c"
b10000101 b"
b1011001000000000 l"
b101100100 k"
b10100111 X"
b1111 ("
b1111111101111011 i
b1111111101111011 ~
b1111111101111011 0"
b101100100 j
b101100100 !"
b101100100 1"
b0 7
b0 u
b100 }
b1111111101111011 B"
b1111111101111011 _"
b101010111 A"
b101100100 F"
b101100100 h"
b1010111 E"
b10100111 <"
b10100111 U"
b1111111110000000 L"
b10000000 K"
b1111111110000000 J"
b10011 @"
b10010010 ?"
b10111010 D"
b1111111111011001 C"
1,
#480000
0,
#485000
09"
b1111111111010101 6"
b1111111111010101 i"
b1111111111010101 n"
b101011 o"
1m"
b1111111101010101 7"
b1111111101010101 `"
b1111111101010101 e"
b10101011 f"
b10111001 X"
b10000000 j"
b10101110000000 l"
b1010111 k"
b10000000 a"
b1010101110000000 c"
b101010111 b"
b11110 ("
b10000000 L"
b1111111110000000 K"
b10000000 J"
b10010010 @"
b1111111101111011 ?"
b1111111111011001 D"
b101100100 C"
b1111111101000111 <"
b1111111101000111 U"
b10110010 R"
b1111111110000000 >"
b1111111110000000 g"
b1010111 F"
b1010111 h"
b10111010 E"
b1111111110111110 Q"
b1111111110000000 ="
b1111111110000000 ^"
b101010111 B"
b101010111 _"
b10011 A"
1,
#490000
0,
#495000
0:"
b1001 7"
b1001 `"
b1001 e"
b1001 f"
0d"
09"
b1011101 6"
b1011101 i"
b1011101 n"
b1011101 o"
0m"
1$"
b10000000 a"
b100110000000 c"
b10011 b"
b10000000 j"
b101110100000000 l"
b10111010 k"
b111101001 X"
b111100 ("
b1111111110111110 &"
b1111111110111110 4"
b1111111110111110 S"
b1111111101010101 Q"
b10000000 ="
b10000000 ^"
b10011 B"
b10011 _"
b10010010 A"
b10110010 %"
b10110010 5"
b10110010 T"
b1111111111010101 R"
b10000000 >"
b10000000 g"
b10111010 F"
b10111010 h"
b1111111111011001 E"
b111101001 <"
b111101001 U"
b1111111110000000 L"
b10000000 K"
b1111111101111011 @"
b101100100 D"
1,
#500000
0,
