tb.vcd
$date
	Mon Oct  6 21:42:33 2025
$end
$version
	Icarus Verilog
$end
$timescale
	1ps
$end
$scope module tb_matrix_multiplier $end
$var wire 1 ! done $end
$var wire 1 " Hq_out_valid $end
$var wire 16 # Hq_out_r [15:0] $end
$var wire 16 $ Hq_out_i [15:0] $end
$var reg 16 % H_in_i [15:0] $end
$var reg 16 & H_in_r [15:0] $end
$var reg 1 ' H_in_valid $end
$var reg 1 ( clk $end
$var reg 4 ) q_index [3:0] $end
$var reg 1 * rst $end
$var reg 1 + start $end
$scope module dut $end
$var wire 16 , H_in_i [15:0] $end
$var wire 16 - H_in_r [15:0] $end
$var wire 1 ' H_in_valid $end
$var wire 1 ( clk $end
$var wire 16 . h_data_i [15:0] $end
$var wire 16 / h_data_r [15:0] $end
$var wire 1 0 mac_clear $end
$var wire 4 1 q_index [3:0] $end
$var wire 1 * rst $end
$var wire 1 + start $end
$var wire 1 2 mac_result_valid $end
$var wire 16 3 mac_result_r [15:0] $end
$var wire 16 4 mac_result_i [15:0] $end
$var reg 16 5 Hq_out_i [15:0] $end
$var reg 16 6 Hq_out_r [15:0] $end
$var reg 1 " Hq_out_valid $end
$var reg 1 ! done $end
$var reg 2 7 i_counter [1:0] $end
$var reg 1 8 j_counter $end
$var reg 2 9 k_counter [1:0] $end
$var reg 2 : load_col_cnt [1:0] $end
$var reg 2 ; load_row_cnt [1:0] $end
$var reg 1 < mac_en $end
$var reg 4 = next_state [3:0] $end
$var reg 16 > s_data_i [15:0] $end
$var reg 16 ? s_data_r [15:0] $end
$var reg 4 @ state [3:0] $end
$scope module c_mac_inst $end
$var wire 1 ( clk $end
$var wire 16 A in_ai [15:0] $end
$var wire 16 B in_ar [15:0] $end
$var wire 16 C in_bi [15:0] $end
$var wire 16 D in_br [15:0] $end
$var wire 1 0 mac_clear $end
$var wire 1 < mac_en $end
$var wire 1 * rst $end
$var wire 1 E product_valid $end
$var wire 16 F product_r [15:0] $end
$var wire 16 G product_i [15:0] $end
$var wire 1 2 mac_result_valid $end
$var reg 6 H data_valid_pipe [5:0] $end
$var reg 2 I mac_counter [1:0] $end
$var reg 32 J mac_i_out [31:0] $end
$var reg 32 K mac_i_reg [31:0] $end
$var reg 32 L mac_i_tmp [31:0] $end
$var reg 32 M mac_r_out [31:0] $end
$var reg 32 N mac_r_reg [31:0] $end
$var reg 32 O mac_r_tmp [31:0] $end
$scope module cmult_inst $end
$var wire 16 P ai [15:0] $end
$var wire 16 Q ar [15:0] $end
$var wire 16 R bi [15:0] $end
$var wire 16 S br [15:0] $end
$var wire 1 ( clk $end
$var wire 16 T pi [15:0] $end
$var wire 16 U pr [15:0] $end
$var wire 1 * rst $end
$var wire 16 V tmp_multr [15:0] $end
$var wire 16 W tmp_multi [15:0] $end
$var wire 16 X tmp_mult0 [15:0] $end
$var wire 1 Y ovr_multr $end
$var wire 1 Z ovr_multi $end
$var wire 1 [ ovr_mult0 $end
$var reg 16 \ addcommon [15:0] $end
$var reg 16 ] addi [15:0] $end
$var reg 16 ^ addr [15:0] $end
$var reg 16 _ ai_d [15:0] $end
$var reg 16 ` ai_dd [15:0] $end
$var reg 16 a ai_ddd [15:0] $end
$var reg 16 b ai_dddd [15:0] $end
$var reg 16 c ar_d [15:0] $end
$var reg 16 d ar_dd [15:0] $end
$var reg 16 e ar_ddd [15:0] $end
$var reg 16 f ar_dddd [15:0] $end
$var reg 16 g bi_d [15:0] $end
$var reg 16 h bi_dd [15:0] $end
$var reg 16 i bi_ddd [15:0] $end
$var reg 16 j br_d [15:0] $end
$var reg 16 k br_dd [15:0] $end
$var reg 16 l br_ddd [15:0] $end
$var reg 16 m common [15:0] $end
$var reg 16 n commonr1 [15:0] $end
$var reg 16 o commonr2 [15:0] $end
$var reg 16 p mult0 [15:0] $end
$var reg 16 q multi [15:0] $end
$var reg 16 r multr [15:0] $end
$var reg 16 s pi_int [15:0] $end
$var reg 16 t pr_int [15:0] $end
$scope module qmult_common $end
$var wire 16 u i_multiplicand [15:0] $end
$var wire 16 v i_multiplier [15:0] $end
$var wire 16 w o_result [15:0] $end
$var wire 16 x temp_multiplicand [15:0] $end
$var wire 16 y temp_meltiplier [15:0] $end
$var wire 32 z r_result [31:0] $end
$var reg 1 { is_signed $end
$var reg 1 [ ovr $end
$var reg 16 | r_RetVal [15:0] $end
$var reg 16 } temp_RetVal [15:0] $end
$upscope $end
$scope module qmult_imag $end
$var wire 16 ~ i_multiplicand [15:0] $end
$var wire 16 !" i_multiplier [15:0] $end
$var wire 16 "" o_result [15:0] $end
$var wire 16 #" temp_multiplicand [15:0] $end
$var wire 16 $" temp_meltiplier [15:0] $end
$var wire 32 %" r_result [31:0] $end
$var reg 1 &" is_signed $end
$var reg 1 Z ovr $end
$var reg 16 '" r_RetVal [15:0] $end
$var reg 16 (" temp_RetVal [15:0] $end
$upscope $end
$scope module qmult_real $end
$var wire 16 )" i_multiplicand [15:0] $end
$var wire 16 *" i_multiplier [15:0] $end
$var wire 16 +" o_result [15:0] $end
$var wire 16 ," temp_multiplicand [15:0] $end
$var wire 16 -" temp_meltiplier [15:0] $end
$var wire 32 ." r_result [31:0] $end
$var reg 1 /" is_signed $end
$var reg 1 Y ovr $end
$var reg 16 0" r_RetVal [15:0] $end
$var reg 16 1" temp_RetVal [15:0] $end
$upscope $end
$upscope $end
$upscope $end
$scope begin sq_block $end
$upscope $end
$upscope $end
$scope task drive_h_matrix $end
$var integer 32 2" i [31:0] $end
$var integer 32 3" j [31:0] $end
$upscope $end
$scope task get_s_matrix $end
$var reg 4 4" q_idx [3:0] $end
$var integer 32 5" i [31:0] $end
$var integer 32 6" j [31:0] $end
$upscope $end
$scope task initialize_signals $end
$upscope $end
$scope task print_results $end
$var reg 4 7" q_idx [3:0] $end
$var integer 32 8" i [31:0] $end
$upscope $end
$scope task read_h_matrix_from_file $end
$var reg 16 9" temp_data [15:0] $end
$var integer 32 :" dummy [31:0] $end
$var integer 32 ;" h_imag_fd [31:0] $end
$var integer 32 <" h_real_fd [31:0] $end
$var integer 32 =" i [31:0] $end
$var integer 32 >" j [31:0] $end
$upscope $end
$scope task reset_dut $end
$upscope $end
$scope task run_and_capture_hq $end
$var reg 4 ?" q_idx [3:0] $end
$var integer 32 @" i [31:0] $end
$var integer 32 A" j [31:0] $end
$upscope $end
$upscope $end
$enddefinitions $end
#0
$dumpvars
bx A"
bx @"
bx ?"
bx >"
bx ="
bx <"
bx ;"
bx :"
bx 9"
bx 8"
bx 7"
bx 6"
bx 5"
bx 4"
bx 3"
bx 2"
bx 1"
bx 0"
x/"
bx ."
bx -"
bx ,"
bx +"
bx *"
bx )"
bx ("
bx '"
x&"
bx %"
bx $"
bx #"
bx ""
bx !"
bx ~
bx }
bx |
x{
bx z
bx y
bx x
bx w
bx v
bx u
bx t
bx s
bx r
bx q
bx p
bx o
bx n
bx m
bx l
bx k
bx j
bx i
bx h
bx g
bx f
bx e
bx d
bx c
bx b
bx a
bx `
bx _
bx ^
bx ]
bx \
x[
xZ
xY
bx X
bx W
bx V
bx U
bx T
b10000000 S
b0 R
bx Q
bx P
bx O
b0 N
b0 M
bx L
b0 K
b0 J
b0 I
b0 H
bx G
bx F
0E
b10000000 D
b0 C
bx B
bx A
b0 @
b10000000 ?
b0 >
b0 =
0<
b0 ;
b0 :
b0 9
08
b0 7
b0 6
b0 5
b0 4
b0 3
02
b0 1
00
bx /
bx .
b0 -
b0 ,
0+
1*
b0 )
0(
0'
b0 &
b0 %
b0 $
b0 #
0"
0!
$end
#5000
b0 g
b0 j
b0 _
b0 c
1(
#10000
0(
#15000
b0 x
b0 \
b0 u
1(
#20000
0(
0*
#25000
0[
b0 X
b0 w
b0 |
b0 }
0{
b0 z
b0 y
b0 h
b0 v
b0 k
b10000000 j
b0 `
bx _
b0 d
bx c
1(
#30000
0(
#35000
x[
bx X
bx w
bx |
b0xxxxxxxxxxxxxxx }
x{
bx z
bx x
b0 a
b0 e
b0 p
bx \
bx u
b0 i
b0 l
b10000000 k
bx `
bx d
1(
#40000
b1 =
0(
1+
b1 )
b1 1
b1 ?"
b1 :"
b1000110 9"
b100 ="
b100 >"
b10000000000000000000000000000100 ;"
b10000000000000000000000000000011 <"
#45000
0Y
b0 V
b0 +"
b0 0"
b0 1"
0/"
0Z
b0 W
b0 ""
b0 '"
b0 ("
0&"
b0 ."
b0 ,"
b0 -"
b0 %"
b0 #"
b0 $"
b1 @
b10000000 l
b0 m
bx p
b0 ^
b0 )"
b0 f
b0 *"
bx e
b0 ]
b0 ~
b0 b
b0 !"
bx a
b1 =
0+
1(
#50000
0(
#55000
xZ
bx W
bx ""
bx '"
b0xxxxxxxxxxxxxxx ("
x&"
xY
bx V
bx +"
bx 0"
b0xxxxxxxxxxxxxxx 1"
x/"
b10000000 #"
bx %"
bx $"
b10000000 ,"
bx ."
bx -"
b1 :
b1000100 .
b1000100 A
b1000100 P
b1111111111101110 /
b1111111111101110 B
b1111111111101110 Q
b0 o
b0 q
b10000000 ]
b10000000 ~
bx b
bx !"
b0 n
b0 r
b10000000 ^
b10000000 )"
bx f
bx *"
bx m
b1000100 %
b1000100 ,
b1111111111101110 &
b1111111111101110 -
1'
b0 3"
b0 2"
1(
#60000
0(
#65000
b10 :
b1000100 _
b1111111111101110 c
b0 F
b0 U
b0 t
bx n
bx r
b0 G
b0 T
b0 s
bx o
bx q
b1111110 %
b1111110 ,
b1111111111011001 &
b1111111111011001 -
b1 3"
1(
#70000
0(
#75000
0[
b0 X
b0 w
b0 |
b0 }
1{
b0 z
b1010110 x
b11 :
bx G
bx T
bx s
bx F
bx U
bx t
b1111111110101010 \
b1111111110101010 u
b1000100 `
b1111111111101110 d
b1111111101100000 %
b1111111101100000 ,
b1111111111010110 &
b1111111111010110 -
b10 3"
1(
#80000
0(
#85000
b1 ;
b0 :
b0 p
b1111111111101110 e
b1000100 a
b1111111110111111 %
b1111111110111111 ,
b11000000 &
b11000000 -
b11 3"
1(
#90000
0(
#95000
0Z
b100010 W
b100010 ""
b100010 '"
b100010 ("
0&"
0Y
b1111111111110111 V
b1111111111110111 +"
b1111111111110111 0"
b1001 1"
1/"
b10001000000000 %"
b100100000000 ."
b1000100 $"
b10010 -"
b1 :
b1000100 b
b1000100 !"
b1111111111101110 f
b1111111111101110 *"
b0 m
b1111111101111011 %
b1111111101111011 ,
b101100100 &
b101100100 -
b1 2"
b0 3"
1(
#100000
0(
#105000
b10 :
b0 n
b1111111111110111 r
b0 o
b100010 q
b101010111 %
b101010111 ,
b1010111 &
b1010111 -
b1 3"
1(
#110000
0(
#115000
b11 :
b100010 G
b100010 T
b100010 s
b1111111111110111 F
b1111111111110111 U
b1111111111110111 t
b10011 %
b10011 ,
b10111010 &
b10111010 -
b10 3"
1(
#120000
0(
#125000
b10 ;
b0 :
b10010010 %
b10010010 ,
b1111111111011001 &
b1111111111011001 -
b11 3"
1(
#130000
0(
#135000
b1 :
b1001110 %
b1001110 ,
b101010010 &
b101010010 -
b10 2"
b0 3"
1(
#140000
0(
#145000
b10 :
b1111111110111101 %
b1111111110111101 ,
b111000010 &
b111000010 -
b1 3"
1(
#150000
0(
#155000
b11 :
b1111111100111001 %
b1111111100111001 ,
b1111111011010001 &
b1111111011010001 -
b10 3"
1(
#160000
0(
#165000
b11 ;
b0 :
b10000010 %
b10000010 ,
b1111111110100011 &
b1111111110100011 -
b11 3"
1(
#170000
0(
#175000
b1 :
b1111111101010101 %
b1111111101010101 ,
b1111111111000000 &
b1111111111000000 -
b11 2"
b0 3"
1(
#180000
0(
#185000
b10 :
b1111111011111111 %
b1111111011111111 ,
b10001101 &
b10001101 -
b1 3"
1(
#190000
0(
#195000
b11 =
b11 :
b11001 %
b11001 ,
b1111111100010100 &
b1111111100010100 -
b10 3"
1(
#200000
0(
#205000
1<
b0 ;
b0 :
b11 @
b1000110 %
b1000110 ,
b110 &
b110 -
b11 3"
1(
#210000
0(
#215000
b1111111110000000 ?
b1111111110000000 D
b1111111110000000 S
b1 H
b1111111111011001 /
b1111111111011001 B
b1111111111011001 Q
b1111110 .
b1111110 A
b1111110 P
b1 9
1<
b0 A"
b0 @"
0'
b100 2"
b100 3"
1(
#220000
0(
#225000
1<
b10000000 ?
b10000000 D
b10000000 S
b1111111111010110 /
b1111111111010110 B
b1111111111010110 Q
b1111111101100000 .
b1111111101100000 A
b1111111101100000 P
b10 9
b11 H
b1111111110000000 j
b1111110 _
b1111111111011001 c
1(
#230000
0(
#235000
b100 =
1<
b0 ?
b0 D
b0 S
b10000000 >
b10000000 C
b10000000 R
b10100101 x
b111 H
b11000000 /
b11000000 B
b11000000 Q
b1111111110111111 .
b1111111110111111 A
b1111111110111111 P
b11 9
b1111111101011011 \
b1111111101011011 u
b1111111110000000 k
b10000000 j
b1111110 `
b1111111101100000 _
b1111111111011001 d
b1111111111010110 c
1(
#240000
0(
#245000
b10000000 ?
b10000000 D
b10000000 S
b0 >
b0 C
b0 R
0<
b1110110 x
b1111111111101110 /
b1111111111101110 B
b1111111111101110 Q
b1000100 .
b1000100 A
b1000100 P
b0 9
b100 @
b1111 H
b10000000 g
b1111111110000000 l
b10000000 k
b0 j
b1111111101100000 `
b1111111110111111 _
b1111111111010110 d
b11000000 c
b1110110 \
b1110110 u
b1111111111011001 e
b1111110 a
1(
#250000
0(
#255000
0Z
b1111111111000001 W
b1111111111000001 ""
b1111111111000001 '"
b111111 ("
1&"
0Y
b10011 V
b10011 +"
b10011 0"
b10011 1"
0/"
b10000000 X
b10000000 w
b10000000 |
b10000000 }
0{
b10000000 #"
b11111100000000 %"
b1111110 $"
b10000000 ,"
b1001110000000 ."
b100111 -"
b100000001 x
b1000000010000000 z
b10000000 y
b11110 H
b1111111110000000 ]
b1111111110000000 ~
b1111110 b
b1111110 !"
b1111111101100000 a
b1111111110000000 ^
b1111111110000000 )"
b1111111111011001 f
b1111111111011001 *"
b1111111111010110 e
b100000001 \
b100000001 u
b10000000 h
b10000000 v
b0 g
b10000000 l
b0 k
b10000000 j
b1111111110111111 `
b1000100 _
b11000000 d
b1111111111101110 c
1(
#260000
0(
#265000
b0 X
b0 w
b0 |
b0 }
1{
0Y
b1111111111101011 V
b1111111111101011 +"
b1111111111101011 0"
b10101 1"
1/"
b1111111110110000 W
b1111111110110000 ""
b1111111110110000 '"
b1010000 ("
1E
b0 y
b0 z
b1010110 x
b10000000 ,"
b1010100000000 ."
b101010 -"
b10000000 #"
b101000000000000 %"
b10100000 $"
b111100 H
b10000000 i
b0 h
b0 v
b0 l
b10000000 k
b1000100 `
b1111111111101110 d
b10000000 p
b1111111110101010 \
b1111111110101010 u
b10011 r
b10000000 ^
b10000000 )"
b1111111111010110 f
b1111111111010110 *"
b11000000 e
b1111111111000001 q
b10000000 ]
b10000000 ~
b1111111101100000 b
b1111111101100000 !"
b1111111110111111 a
1(
#270000
0(
#275000
b1111111111100000 W
b1111111111100000 ""
b1111111111100000 '"
b100000 ("
b1111111110100000 V
b1111111110100000 +"
b1111111110100000 0"
b1100000 1"
b10000010000000 %"
b1000001 $"
b10000000 ,"
b110000000000000 ."
b11000000 -"
b1 I
b111000 H
b100010 K
b11111111111111111111111111110111 N
b1111111111000001 G
b1111111111000001 T
b1111111111000001 s
b1111111110110000 q
b1111111110111111 b
b1111111110111111 !"
b1000100 a
b10011 F
b10011 U
b10011 t
b1111111111101011 r
b1111111110000000 ^
b1111111110000000 )"
b11000000 f
b11000000 *"
b1111111111101110 e
b10000000 m
b0 p
b0 i
b10000000 l
1(
#280000
0(
#285000
b1111111111110111 V
b1111111111110111 +"
b1111111111110111 0"
b1001 1"
0Z
b100010 W
b100010 ""
b100010 '"
b100010 ("
0&"
b10000000 ,"
b100100000000 ."
b10010 -"
b10001000000000 %"
b1000100 $"
b11111111111111111111111111100011 K
b1010 N
b110000 H
b10 I
b0 m
b1111111111101011 F
b1111111111101011 U
b1111111111101011 t
b10000000 n
b1111111110100000 r
b10000000 ^
b10000000 )"
b1111111111101110 f
b1111111111101110 *"
b1111111110110000 G
b1111111110110000 T
b1111111110110000 s
b10000000 o
b1111111111100000 q
b1000100 b
b1000100 !"
1(
#290000
0(
#295000
b101 =
10
12
b11 I
b100000 H
b11111111111111111111111110010011 K
b11111111111111111111111111110101 N
b1100000 G
b1100000 T
b1100000 s
b0 o
b100010 q
b100000 F
b100000 U
b100000 t
b0 n
b1111111111110111 r
1(
#300000
0(
#305000
00
02
b11 =
b1111111111110011 $
b1111111111110011 5
b10101 #
b10101 6
1"
b1111111111110011 4
b10101 3
0E
b101 @
b11111111111111111111111111110011 J
b10101 M
b11111111111111111111111110010011 L
b11111111111111111111111111110101 O
b0 K
b0 N
b0 H
b0 I
b1111111111110111 F
b1111111111110111 U
b1111111111110111 t
b100010 G
b100010 T
b100010 s
1(
#310000
0(
#315000
1<
0"
18
b11 @
1(
#320000
0(
#325000
1<
b1111111111011001 /
b1111111111011001 B
b1111111111011001 Q
b1111110 .
b1111110 A
b1111110 P
b1 9
b1 H
b1 A"
1(
#330000
0(
#335000
1<
b0 ?
b0 D
b0 S
b10000000 >
b10000000 C
b10000000 R
b11 H
b1111111111010110 /
b1111111111010110 B
b1111111111010110 Q
b1111111101100000 .
b1111111101100000 A
b1111111101100000 P
b10 9
b1111110 _
b1111111111011001 c
1(
#340000
0(
#345000
b100 =
1<
b10000000 ?
b10000000 D
b10000000 S
b0 >
b0 C
b0 R
b10100101 x
b11000000 /
b11000000 B
b11000000 Q
b1111111110111111 .
b1111111110111111 A
b1111111110111111 P
b11 9
b111 H
b10000000 g
b0 j
b1111110 `
b1111111101100000 _
b1111111111011001 d
b1111111111010110 c
b1111111101011011 \
b1111111101011011 u
1(
#350000
0(
#355000
0[
b111011 X
b111011 w
b111011 |
b111011 }
0{
0<
b1110110 x
b11101100000000 z
b10000000 y
b1111 H
b1111111111101110 /
b1111111111101110 B
b1111111111101110 Q
b1000100 .
b1000100 A
b1000100 P
b0 9
b100 @
b1111110 a
b1111111111011001 e
b1110110 \
b1110110 u
b10000000 h
b10000000 v
b0 g
b0 k
b10000000 j
b1111111101100000 `
b1111111110111111 _
b1111111111010110 d
b11000000 c
1(
#360000
0(
#365000
b0 X
b0 w
b0 |
b0 }
b1111111111101101 V
b1111111111101101 +"
b1111111111101101 0"
b10011 1"
b111111 W
b111111 ""
b111111 '"
b111111 ("
b0 y
b0 z
b100000001 x
b1001110000000 ."
b100111 -"
b11111100000000 %"
b1111110 $"
b11110 H
b10000000 i
b0 h
b0 v
b0 l
b10000000 k
b1111111110111111 `
b1000100 _
b11000000 d
b1111111111101110 c
b111011 p
b100000001 \
b100000001 u
b1111111111011001 f
b1111111111011001 *"
b1111111111010110 e
b1111110 b
b1111110 !"
b1111111101100000 a
1(
#370000
0(
#375000
0Z
b1111111110110000 W
b1111111110110000 ""
b1111111110110000 '"
b1010000 ("
1&"
0Y
b10101 V
b10101 +"
b10101 0"
b10101 1"
0/"
1E
b101000000000000 %"
b10100000 $"
b10000000 ,"
b1010100000000 ."
b101010 -"
b1010110 x
b111100 H
b111111 q
b1111111101100000 b
b1111111101100000 !"
b1111111110111111 a
b1111111111101101 r
b1111111110000000 ^
b1111111110000000 )"
b1111111111010110 f
b1111111111010110 *"
b11000000 e
b111011 m
b0 p
b1111111110101010 \
b1111111110101010 u
b0 i
b10000000 l
b1000100 `
b1111111111101110 d
1(
#380000
0(
#385000
b1100000 V
b1100000 +"
b1100000 0"
b1100000 1"
b1111111111100000 W
b1111111111100000 ""
b1111111111100000 '"
b100000 ("
b10000000 ,"
b110000000000000 ."
b11000000 -"
b10000010000000 %"
b1000001 $"
b100010 K
b11111111111111111111111111110111 N
b111000 H
b1 I
b0 m
b1111111111101101 F
b1111111111101101 U
b1111111111101101 t
b111011 n
b10101 r
b10000000 ^
b10000000 )"
b11000000 f
b11000000 *"
b1111111111101110 e
b111111 G
b111111 T
b111111 s
b111011 o
b1111111110110000 q
b1111111110111111 b
b1111111110111111 !"
b1000100 a
1(
#390000
0(
#395000
0Z
b100010 W
b100010 ""
b100010 '"
b100010 ("
0&"
0Y
b1111111111110111 V
b1111111111110111 +"
b1111111111110111 0"
b1001 1"
1/"
b10001000000000 %"
b1000100 $"
b100100000000 ."
b10010 -"
b10 I
b110000 H
b1100001 K
b11111111111111111111111111100100 N
b1111111111101011 G
b1111111111101011 T
b1111111111101011 s
b0 o
b1111111111100000 q
b1000100 b
b1000100 !"
b1010000 F
b1010000 U
b1010000 t
b0 n
b1100000 r
b1111111111101110 f
b1111111111101110 *"
1(
#400000
0(
#405000
b101 =
10
12
b1001100 K
b110100 N
b100000 H
b11 I
b1100000 F
b1100000 U
b1100000 t
b1111111111110111 r
b1111111111100000 G
b1111111111100000 T
b1111111111100000 s
b100010 q
1(
#410000
0(
#415000
00
02
b101100 $
b101100 5
b10010100 #
b10010100 6
0E
b101100 4
b10010100 3
b11 =
1"
b0 I
b0 H
b1001100 L
b110100 O
b0 K
b0 N
b101100 J
b10010100 M
b101 @
b100010 G
b100010 T
b100010 s
b1111111111110111 F
b1111111111110111 U
b1111111111110111 t
1(
#420000
0(
#425000
1<
0"
b101100100 /
b101100100 B
b101100100 Q
b1111111101111011 .
b1111111101111011 A
b1111111101111011 P
b1 7
08
b11 @
1(
#430000
0(
#435000
1<
b1111111110000000 ?
b1111111110000000 D
b1111111110000000 S
b1 H
b1010111 /
b1010111 B
b1010111 Q
b101010111 .
b101010111 A
b101010111 P
b1 9
b1111111101111011 _
b101100100 c
b1 @"
b0 A"
1(
#440000
0(
#445000
1<
b10000000 ?
b10000000 D
b10000000 S
b111101001 x
b10111010 /
b10111010 B
b10111010 Q
b10011 .
b10011 A
b10011 P
b10 9
b11 H
b1111111110000000 j
b1111111101111011 `
b101010111 _
b101100100 d
b1010111 c
b111101001 \
b111101001 u
1(
#450000
0(
#455000
b100 =
1<
b0 ?
b0 D
b0 S
b10000000 >
b10000000 C
b10000000 R
b100000000 x
b111 H
b1111111111011001 /
b1111111111011001 B
b1111111111011001 Q
b10010010 .
b10010010 A
b10010010 P
b11 9
b1111111101111011 a
b101100100 e
b1111111100000000 \
b1111111100000000 u
b1111111110000000 k
b10000000 j
b101010111 `
b10011 _
b1010111 d
b10111010 c
1(
#460000
0(
#465000
0Y
b10110010 V
b10110010 +"
b10110010 0"
b10110010 1"
0/"
0Z
b1111111110111110 W
b1111111110111110 ""
b1111111110111110 '"
b1000010 ("
1&"
b10000000 ?
b10000000 D
b10000000 S
b0 >
b0 C
b0 R
0<
b10100111 x
b1011001000000000 ."
b101100100 -"
b100001010000000 %"
b10000101 $"
b101100100 /
b101100100 B
b101100100 Q
b1111111101111011 .
b1111111101111011 A
b1111111101111011 P
b0 9
b100 @
b1111 H
b10000000 g
b1111111110000000 l
b10000000 k
b0 j
b10011 `
b10010010 _
b10111010 d
b1111111111011001 c
b10100111 \
b10100111 u
b101100100 f
b101100100 *"
b1010111 e
b1111111101111011 b
b1111111101111011 !"
b101010111 a
1(
#470000
0(
#475000
b1111111101010101 W
b1111111101010101 ""
b1111111101010101 '"
b10101011 ("
0Y
b1111111111010101 V
b1111111111010101 +"
b1111111111010101 0"
b101011 1"
1/"
0[
b1111111110100100 X
b1111111110100100 w
b1111111110100100 |
b1011100 }
1{
b10000000 #"
b1010101110000000 %"
b101010111 $"
b10000000 ,"
b10101110000000 ."
b1010111 -"
b10111001 x
b101110010000000 z
b10000000 y
b11110 H
b1111111110111110 q
b1111111110000000 ]
b1111111110000000 ~
b101010111 b
b101010111 !"
b10011 a
b10110010 r
b1111111110000000 ^
b1111111110000000 )"
b1010111 f
b1010111 *"
b10111010 e
b1111111101000111 \
b1111111101000111 u
b10000000 h
b10000000 v
b0 g
b10000000 l
b0 k
b10000000 j
b10010010 `
b1111111101111011 _
b1111111111011001 d
b101100100 c
1(
#480000
0(
#485000
b0 X
b0 w
b0 |
b0 }
0{
0Y
b1011101 V
b1011101 +"
b1011101 0"
b1011101 1"
0/"
0Z
b1001 W
b1001 ""
b1001 '"
b1001 ("
0&"
1E
b0 y
b0 z
b111101001 x
b10000000 ,"
b101110100000000 ."
b10111010 -"
b10000000 #"
b100110000000 %"
b10011 $"
b111100 H
b10000000 i
b0 h
b0 v
b0 l
b10000000 k
b1111111101111011 `
b101100100 d
b1111111110100100 p
b111101001 \
b111101001 u
b10110010 F
b10110010 U
b10110010 t
b1111111111010101 r
b10000000 ^
b10000000 )"
b10111010 f
b10111010 *"
b1111111111011001 e
b1111111110111110 G
b1111111110111110 T
b1111111110111110 s
b1111111101010101 q
b10000000 ]
b10000000 ~
b10011 b
b10011 !"
b10010010 a
1(
#490000
0(
#495000
b1001001 W
b1001001 ""
b1001001 '"
b1001001 ("
b10011 V
b10011 +"
b10011 0"
b10011 1"
b100100100000000 %"
b10010010 $"
b10000000 ,"
b1001110000000 ."
b100111 -"
b1 I
b111000 H
b11111111111111111111111110111110 K
b10110010 N
b1111111101010101 G
b1111111101010101 T
b1111111101010101 s
b1001 q
b10010010 b
b10010010 !"
b1111111101111011 a
b1111111111010101 F
b1111111111010101 U
b1111111111010101 t
b1011101 r
b1111111110000000 ^
b1111111110000000 )"
b1111111111011001 f
b1111111111011001 *"
b101100100 e
b1111111110100100 m
b0 p
b0 i
b10000000 l
1(
#500000
0(
#505000
b10110010 V
b10110010 +"
b10110010 0"
b10110010 1"
0Z
b1111111110111110 W
b1111111110111110 ""
b1111111110111110 '"
b1000010 ("
1&"
b10000000 ,"
b1011001000000000 ."
b101100100 -"
b100001010000000 %"
b10000101 $"
b11111111111111111111111100010011 K
b10000111 N
b110000 H
b10 I
b0 m
b1011101 F
b1011101 U
b1011101 t
b1111111110100100 n
b10011 r
b10000000 ^
b10000000 )"
b101100100 f
b101100100 *"
b1001 G
b1001 T
b1001 s
b1111111110100100 o
b1001001 q
b1111111101111011 b
b1111111101111011 !"
1(
#510000
0(
#515000
b101 =
10
12
b11 I
b100000 H
b11111111111111111111111100011100 K
b11100100 N
b1111111111101101 G
b1111111111101101 T
b1111111111101101 s
b0 o
b1111111110111110 q
b1111111110110111 F
b1111111110110111 U
b1111111110110111 t
b0 n
b10110010 r
1(
#520000
0(
#525000
00
02
b11 =
b1111111100001001 $
b1111111100001001 5
b10011011 #
b10011011 6
1"
b1111111100001001 4
b10011011 3
0E
b101 @
b11111111111111111111111100001001 J
b10011011 M
b11111111111111111111111100011100 L
b11100100 O
b0 K
b0 N
b0 H
b0 I
b10110010 F
b10110010 U
b10110010 t
b1111111110111110 G
b1111111110111110 T
b1111111110111110 s
1(
#530000
0(
#535000
1<
0"
18
b11 @
1(
#540000
0(
#545000
1<
b1010111 /
b1010111 B
b1010111 Q
b101010111 .
b101010111 A
b101010111 P
b1 9
b1 H
b1 A"
1(
#550000
0(
#555000
1<
b0 ?
b0 D
b0 S
b10000000 >
b10000000 C
b10000000 R
b11 H
b10111010 /
b10111010 B
b10111010 Q
b10011 .
b10011 A
b10011 P
b10 9
b101010111 _
b1010111 c
1(
#560000
0(
#565000
b100 =
1<
b10000000 ?
b10000000 D
b10000000 S
b0 >
b0 C
b0 R
b100000000 x
b1111111111011001 /
b1111111111011001 B
b1111111111011001 Q
b10010010 .
b10010010 A
b10010010 P
b11 9
b111 H
b10000000 g
b0 j
b101010111 `
b10011 _
b1010111 d
b10111010 c
b1111111100000000 \
b1111111100000000 u
1(
#570000
0(
#575000
0[
b1010011 X
b1010011 w
b1010011 |
b1010011 }
0<
b10100111 x
b101001110000000 z
b10000000 y
b1111 H
b101100100 /
b101100100 B
b101100100 Q
b1111111101111011 .
b1111111101111011 A
b1111111101111011 P
b0 9
b100 @
b101010111 a
b1010111 e
b10100111 \
b10100111 u
b10000000 h
b10000000 v
b0 g
b0 k
b10000000 j
b10011 `
b10010010 _
b10111010 d
b1111111111011001 c
1(
#580000
0(
#585000
b0 X
b0 w
b0 |
b0 }
1{
b101011 V
b101011 +"
b101011 0"
b101011 1"
0Z
b10101011 W
b10101011 ""
b10101011 '"
b10101011 ("
0&"
b0 y
b0 z
b10111001 x
b10101110000000 ."
b1010111 -"
b1010101110000000 %"
b101010111 $"
b11110 H
b10000000 i
b0 h
b0 v
b0 l
b10000000 k
b10010010 `
b1111111101111011 _
b1111111111011001 d
b101100100 c
b1010011 p
b1111111101000111 \
b1111111101000111 u
b1010111 f
b1010111 *"
b10111010 e
b101010111 b
b101010111 !"
b10011 a
1(
#590000
0(
#595000
b1001 W
b1001 ""
b1001 '"
b1001 ("
0Y
b1111111110100011 V
b1111111110100011 +"
b1111111110100011 0"
b1011101 1"
1/"
1E
b100110000000 %"
b10011 $"
b10000000 ,"
b101110100000000 ."
b10111010 -"
b111101001 x
b111100 H
b10101011 q
b10011 b
b10011 !"
b10010010 a
b101011 r
b1111111110000000 ^
b1111111110000000 )"
b10111010 f
b10111010 *"
b1111111111011001 e
b1010011 m
b0 p
b111101001 \
b111101001 u
b0 i
b10000000 l
b1111111101111011 `
b101100100 d
1(
#600000
0(
#605000
b1111111111101101 V
b1111111111101101 +"
b1111111111101101 0"
b10011 1"
b1001001 W
b1001001 ""
b1001001 '"
b1001001 ("
b10000000 ,"
b1001110000000 ."
b100111 -"
b100100100000000 %"
b10010010 $"
b11111111111111111111111110111110 K
b10110010 N
b111000 H
b1 I
b0 m
b101011 F
b101011 U
b101011 t
b1010011 n
b1111111110100011 r
b10000000 ^
b10000000 )"
b1111111111011001 f
b1111111111011001 *"
b101100100 e
b10101011 G
b10101011 T
b10101011 s
b1010011 o
b1001 q
b10010010 b
b10010010 !"
b1111111101111011 a
1(
#610000
0(
