tb.vcd
$date
	Sun Sep 28 00:25:46 2025
$end
$version
	Icarus Verilog
$end
$timescale
	1ps
$end
$scope module tb_matrix_multiplier $end
$var wire 1 ! done $end
$var wire 1 " Hq_out_valid $end
$var wire 16 # Hq_out_r [15:0] $end
$var wire 16 $ Hq_out_i [15:0] $end
$var reg 16 % H_in_i [15:0] $end
$var reg 16 & H_in_r [15:0] $end
$var reg 1 ' H_in_valid $end
$var reg 1 ( clk $end
$var reg 4 ) q_index [3:0] $end
$var reg 1 * rst $end
$var reg 1 + start $end
$scope module dut $end
$var wire 16 , H_in_i [15:0] $end
$var wire 16 - H_in_r [15:0] $end
$var wire 1 ' H_in_valid $end
$var wire 1 ( clk $end
$var wire 16 . h_data_i [15:0] $end
$var wire 16 / h_data_r [15:0] $end
$var wire 1 0 mac_clear $end
$var wire 4 1 q_index [3:0] $end
$var wire 1 * rst $end
$var wire 1 + start $end
$var wire 1 2 mac_result_valid $end
$var wire 16 3 mac_result_r [15:0] $end
$var wire 16 4 mac_result_i [15:0] $end
$var reg 16 5 Hq_out_i [15:0] $end
$var reg 16 6 Hq_out_r [15:0] $end
$var reg 1 " Hq_out_valid $end
$var reg 1 ! done $end
$var reg 2 7 i_counter [1:0] $end
$var reg 1 8 j_counter $end
$var reg 2 9 k_counter [1:0] $end
$var reg 2 : load_col_cnt [1:0] $end
$var reg 2 ; load_row_cnt [1:0] $end
$var reg 1 < mac_en $end
$var reg 4 = next_state [3:0] $end
$var reg 16 > s_data_i [15:0] $end
$var reg 16 ? s_data_r [15:0] $end
$var reg 4 @ state [3:0] $end
$scope module c_mac_inst $end
$var wire 1 ( clk $end
$var wire 16 A in_ai [15:0] $end
$var wire 16 B in_ar [15:0] $end
$var wire 16 C in_bi [15:0] $end
$var wire 16 D in_br [15:0] $end
$var wire 1 0 mac_clear $end
$var wire 1 < mac_en $end
$var wire 1 * rst $end
$var wire 1 E product_valid $end
$var wire 16 F product_r [15:0] $end
$var wire 16 G product_i [15:0] $end
$var wire 1 2 mac_result_valid $end
$var reg 6 H data_valid_pipe [5:0] $end
$var reg 2 I mac_counter [1:0] $end
$var reg 16 J mac_i_out [15:0] $end
$var reg 32 K mac_i_reg [31:0] $end
$var reg 32 L mac_i_tmp [31:0] $end
$var reg 16 M mac_r_out [15:0] $end
$var reg 32 N mac_r_reg [31:0] $end
$var reg 32 O mac_r_tmp [31:0] $end
$scope module cmult_inst $end
$var wire 16 P ai [15:0] $end
$var wire 16 Q ar [15:0] $end
$var wire 16 R bi [15:0] $end
$var wire 16 S br [15:0] $end
$var wire 1 ( clk $end
$var wire 16 T pi [15:0] $end
$var wire 16 U pr [15:0] $end
$var wire 1 * rst $end
$var wire 16 V tmp_multr [15:0] $end
$var wire 16 W tmp_multi [15:0] $end
$var wire 16 X tmp_mult0 [15:0] $end
$var wire 1 Y ovr_multr $end
$var wire 1 Z ovr_multi $end
$var wire 1 [ ovr_mult0 $end
$var reg 16 \ addcommon [15:0] $end
$var reg 16 ] addi [15:0] $end
$var reg 16 ^ addr [15:0] $end
$var reg 16 _ ai_d [15:0] $end
$var reg 16 ` ai_dd [15:0] $end
$var reg 16 a ai_ddd [15:0] $end
$var reg 16 b ai_dddd [15:0] $end
$var reg 16 c ar_d [15:0] $end
$var reg 16 d ar_dd [15:0] $end
$var reg 16 e ar_ddd [15:0] $end
$var reg 16 f ar_dddd [15:0] $end
$var reg 16 g bi_d [15:0] $end
$var reg 16 h bi_dd [15:0] $end
$var reg 16 i bi_ddd [15:0] $end
$var reg 16 j br_d [15:0] $end
$var reg 16 k br_dd [15:0] $end
$var reg 16 l br_ddd [15:0] $end
$var reg 16 m common [15:0] $end
$var reg 16 n commonr1 [15:0] $end
$var reg 16 o commonr2 [15:0] $end
$var reg 16 p mult0 [15:0] $end
$var reg 16 q multi [15:0] $end
$var reg 16 r multr [15:0] $end
$var reg 16 s pi_int [15:0] $end
$var reg 16 t pr_int [15:0] $end
$scope module qmult_common $end
$var wire 16 u i_multiplicand [15:0] $end
$var wire 16 v i_multiplier [15:0] $end
$var wire 16 w o_result [15:0] $end
$var wire 16 x temp_multiplicand [15:0] $end
$var wire 16 y temp_meltiplier [15:0] $end
$var wire 32 z r_result [31:0] $end
$var reg 1 { is_signed $end
$var reg 1 [ ovr $end
$var reg 16 | r_RetVal [15:0] $end
$var reg 16 } temp_RetVal [15:0] $end
$upscope $end
$scope module qmult_imag $end
$var wire 16 ~ i_multiplicand [15:0] $end
$var wire 16 !" i_multiplier [15:0] $end
$var wire 16 "" o_result [15:0] $end
$var wire 16 #" temp_multiplicand [15:0] $end
$var wire 16 $" temp_meltiplier [15:0] $end
$var wire 32 %" r_result [31:0] $end
$var reg 1 &" is_signed $end
$var reg 1 Z ovr $end
$var reg 16 '" r_RetVal [15:0] $end
$var reg 16 (" temp_RetVal [15:0] $end
$upscope $end
$scope module qmult_real $end
$var wire 16 )" i_multiplicand [15:0] $end
$var wire 16 *" i_multiplier [15:0] $end
$var wire 16 +" o_result [15:0] $end
$var wire 16 ," temp_multiplicand [15:0] $end
$var wire 16 -" temp_meltiplier [15:0] $end
$var wire 32 ." r_result [31:0] $end
$var reg 1 /" is_signed $end
$var reg 1 Y ovr $end
$var reg 16 0" r_RetVal [15:0] $end
$var reg 16 1" temp_RetVal [15:0] $end
$upscope $end
$upscope $end
$upscope $end
$scope begin sq_block $end
$upscope $end
$upscope $end
$scope task drive_h_matrix $end
$var integer 32 2" i [31:0] $end
$var integer 32 3" j [31:0] $end
$upscope $end
$scope task get_s_matrix $end
$var reg 4 4" q_idx [3:0] $end
$var integer 32 5" i [31:0] $end
$var integer 32 6" j [31:0] $end
$upscope $end
$scope task initialize_signals $end
$upscope $end
$scope task print_results $end
$var reg 4 7" q_idx [3:0] $end
$var integer 32 8" i [31:0] $end
$upscope $end
$scope task read_h_matrix_from_file $end
$var reg 16 9" temp_data [15:0] $end
$var integer 32 :" dummy [31:0] $end
$var integer 32 ;" h_imag_fd [31:0] $end
$var integer 32 <" h_real_fd [31:0] $end
$var integer 32 =" i [31:0] $end
$var integer 32 >" j [31:0] $end
$upscope $end
$scope task reset_dut $end
$upscope $end
$scope task run_and_capture_hq $end
$var reg 4 ?" q_idx [3:0] $end
$var integer 32 @" i [31:0] $end
$var integer 32 A" j [31:0] $end
$upscope $end
$upscope $end
$enddefinitions $end
#0
$dumpvars
bx A"
bx @"
bx ?"
bx >"
bx ="
bx <"
bx ;"
bx :"
bx 9"
bx 8"
bx 7"
bx 6"
bx 5"
bx 4"
bx 3"
bx 2"
bx 1"
bx 0"
x/"
bx ."
bx -"
bx ,"
bx +"
bx *"
bx )"
bx ("
bx '"
x&"
bx %"
bx $"
bx #"
bx ""
bx !"
bx ~
bx }
bx |
x{
bx z
bx y
bx x
bx w
bx v
bx u
bx t
bx s
bx r
bx q
bx p
bx o
bx n
bx m
bx l
bx k
bx j
bx i
bx h
bx g
bx f
bx e
bx d
bx c
bx b
bx a
bx `
bx _
bx ^
bx ]
bx \
x[
xZ
xY
bx X
bx W
bx V
bx U
bx T
b10000000 S
b0 R
bx Q
bx P
bx O
b0 N
b0 M
bx L
b0 K
b0 J
b0 I
b0 H
bx G
bx F
0E
b10000000 D
b0 C
bx B
bx A
b0 @
b10000000 ?
b0 >
b0 =
0<
b0 ;
b0 :
b0 9
08
b0 7
b0 6
b0 5
b0 4
b0 3
02
b0 1
00
bx /
bx .
b0 -
b0 ,
0+
1*
b0 )
0(
0'
b0 &
b0 %
b0 $
b0 #
0"
0!
$end
#5000
b0 g
b0 j
b0 _
b0 c
1(
#10000
0(
#15000
b0 x
b0 \
b0 u
1(
#20000
0(
0*
#25000
0[
b0 X
b0 w
b0 |
b0 }
0{
b0 z
b0 y
b0 h
b0 v
b0 k
b10000000 j
b0 `
bx _
b0 d
bx c
1(
#30000
0(
#35000
x[
bx X
bx w
bx |
b0xxxxxxxxxxxxxxx }
x{
bx z
bx x
b0 a
b0 e
b0 p
bx \
bx u
b0 i
b0 l
b10000000 k
bx `
bx d
1(
#40000
b1 =
0(
1+
b1 )
b1 1
b1 ?"
b1 :"
b10010 9"
b100 ="
b100 >"
b10000000000000000000000000000100 ;"
b10000000000000000000000000000011 <"
#45000
0Y
b0 V
b0 +"
b0 0"
b0 1"
0/"
0Z
b0 W
b0 ""
b0 '"
b0 ("
0&"
b0 ."
b0 ,"
b0 -"
b0 %"
b0 #"
b0 $"
b1 @
b10000000 l
b0 m
bx p
b0 ^
b0 )"
b0 f
b0 *"
bx e
b0 ]
b0 ~
b0 b
b0 !"
bx a
b1 =
0+
1(
#50000
0(
#55000
xZ
bx W
bx ""
bx '"
b0xxxxxxxxxxxxxxx ("
x&"
xY
bx V
bx +"
bx 0"
b0xxxxxxxxxxxxxxx 1"
x/"
b10000000 #"
bx %"
bx $"
b10000000 ,"
bx ."
bx -"
b1 :
b11001111 .
b11001111 A
b11001111 P
b1011 /
b1011 B
b1011 Q
b0 o
b0 q
b10000000 ]
b10000000 ~
bx b
bx !"
b0 n
b0 r
b10000000 ^
b10000000 )"
bx f
bx *"
bx m
b11001111 %
b11001111 ,
b1011 &
b1011 -
1'
b0 3"
b0 2"
1(
#60000
0(
#65000
b10 :
b11001111 _
b1011 c
b0 F
b0 U
b0 t
bx n
bx r
b0 G
b0 T
b0 s
bx o
bx q
b10001100 %
b10001100 ,
b11001101 &
b11001101 -
b1 3"
1(
#70000
0(
#75000
0[
b0 X
b0 w
b0 |
b0 }
1{
b0 z
b11000100 x
b11 :
bx G
bx T
bx s
bx F
bx U
bx t
b1111111100111100 \
b1111111100111100 u
b11001111 `
b1011 d
b1111111101101000 %
b1111111101101000 ,
b11010 &
b11010 -
b10 3"
1(
#80000
0(
#85000
b1 ;
b0 :
b0 p
b1011 e
b11001111 a
b1111111011000000 %
b1111111011000000 ,
b1111111101110100 &
b1111111101110100 -
b11 3"
1(
#90000
0(
#95000
0Z
b1100111 W
b1100111 ""
b1100111 '"
b1100111 ("
0&"
0Y
b101 V
b101 +"
b101 0"
b101 1"
0/"
b110011110000000 %"
b10110000000 ."
b11001111 $"
b1011 -"
b1 :
b11001111 b
b11001111 !"
b1011 f
b1011 *"
b0 m
b1111111111011111 %
b1111111111011111 ,
b11101 &
b11101 -
b1 2"
b0 3"
1(
#100000
0(
#105000
b10 :
b0 n
b101 r
b0 o
b1100111 q
b1111111111100011 %
b1111111111100011 ,
b101 &
b101 -
b1 3"
1(
#110000
0(
#115000
b11 :
b1100111 G
b1100111 T
b1100111 s
b101 F
b101 U
b101 t
b1111111110110000 %
b1111111110110000 ,
b1111111110101011 &
b1111111110101011 -
b10 3"
1(
#120000
0(
#125000
b10 ;
b0 :
b11001000 %
b11001000 ,
b10000 &
b10000 -
b11 3"
1(
#130000
0(
#135000
b1 :
b1111111100111110 %
b1111111100111110 ,
b1111111111000010 &
b1111111111000010 -
b10 2"
b0 3"
1(
#140000
0(
#145000
b10 :
b1111111101010110 %
b1111111101010110 ,
b11110101 &
b11110101 -
b1 3"
1(
#150000
0(
#155000
b11 :
b1111111100000110 %
b1111111100000110 ,
b10000011 &
b10000011 -
b10 3"
1(
#160000
0(
#165000
b11 ;
b0 :
b1111111111100001 %
b1111111111100001 ,
b0 &
b0 -
b11 3"
1(
#170000
0(
#175000
b1 :
b10001001 %
b10001001 ,
b1111110111010111 &
b1111110111010111 -
b11 2"
b0 3"
1(
#180000
0(
#185000
b10 :
b10010101 %
b10010101 ,
b1111111101011010 &
b1111111101011010 -
b1 3"
1(
#190000
0(
#195000
b11 =
b11 :
b101110 %
b101110 ,
b1111111111010110 &
b1111111111010110 -
b10 3"
1(
#200000
0(
#205000
1<
b0 ;
b0 :
b11 @
b10010 %
b10010 ,
b1111111101000101 &
b1111111101000101 -
b11 3"
1(
#210000
0(
#215000
b1111111110000000 ?
b1111111110000000 D
b1111111110000000 S
b1 H
b11001101 /
b11001101 B
b11001101 Q
b10001100 .
b10001100 A
b10001100 P
b1 9
1<
b0 A"
b0 @"
0'
b100 2"
b100 3"
1(
#220000
0(
#225000
1<
b10000000 ?
b10000000 D
b10000000 S
b11010 /
b11010 B
b11010 Q
b1111111101101000 .
b1111111101101000 A
b1111111101101000 P
b10 9
b11 H
b1111111110000000 j
b10001100 _
b11001101 c
1(
#230000
0(
#235000
b100 =
1<
b0 ?
b0 D
b0 S
b10000000 >
b10000000 C
b10000000 R
b1000001 x
b111 H
b1111111101110100 /
b1111111101110100 B
b1111111101110100 Q
b1111111011000000 .
b1111111011000000 A
b1111111011000000 P
b11 9
b1000001 \
b1000001 u
b1111111110000000 k
b10000000 j
b10001100 `
b1111111101101000 _
b11001101 d
b11010 c
1(
#240000
0(
#245000
b10000000 ?
b10000000 D
b10000000 S
b0 >
b0 C
b0 R
0<
b10110010 x
b1011 /
b1011 B
b1011 Q
b11001111 .
b11001111 A
b11001111 P
b0 9
b100 @
b1111 H
b10000000 g
b1111111110000000 l
b10000000 k
b0 j
b1111111101101000 `
b1111111011000000 _
b11010 d
b1111111101110100 c
b10110010 \
b10110010 u
b11001101 e
b10001100 a
1(
#250000
0(
#255000
0Z
b1111111110111010 W
b1111111110111010 ""
b1111111110111010 '"
b1000110 ("
1&"
0Y
b1111111110011010 V
b1111111110011010 +"
b1111111110011010 0"
b1100110 1"
1/"
b1011010 X
b1011010 w
b1011010 |
b1011010 }
0{
b10000000 #"
b100011000000000 %"
b10001100 $"
b10000000 ,"
b110011010000000 ."
b11001101 -"
b10110100 x
b101101000000000 z
b10000000 y
b11110 H
b1111111110000000 ]
b1111111110000000 ~
b10001100 b
b10001100 !"
b1111111101101000 a
b1111111110000000 ^
b1111111110000000 )"
b11001101 f
b11001101 *"
b11010 e
b10110100 \
b10110100 u
b10000000 h
b10000000 v
b0 g
b10000000 l
b0 k
b10000000 j
b1111111011000000 `
b11001111 _
b1111111101110100 d
b1011 c
1(
#260000
0(
#265000
b0 X
b0 w
b0 |
b0 }
1{
0Y
b1101 V
b1101 +"
b1101 0"
b1101 1"
0/"
b1111111110110100 W
b1111111110110100 ""
b1111111110110100 '"
b1001100 ("
1E
b0 y
b0 z
b11000100 x
b10000000 ,"
b110100000000 ."
b11010 -"
b10000000 #"
b100110000000000 %"
b10011000 $"
b111100 H
b10000000 i
b0 h
b0 v
b0 l
b10000000 k
b11001111 `
b1011 d
b1011010 p
b1111111100111100 \
b1111111100111100 u
b1111111110011010 r
b10000000 ^
b10000000 )"
b11010 f
b11010 *"
b1111111101110100 e
b1111111110111010 q
b10000000 ]
b10000000 ~
b1111111101101000 b
b1111111101101000 !"
b1111111011000000 a
1(
#270000
0(
#275000
b1111111101100000 W
b1111111101100000 ""
b1111111101100000 '"
b10100000 ("
b1000110 V
b1000110 +"
b1000110 0"
b1000110 1"
b1010000000000000 %"
b101000000 $"
b10000000 ,"
b100011000000000 ."
b10001100 -"
b1 I
b111000 H
b1100111 K
b101 N
b1111111110111010 G
b1111111110111010 T
b1111111110111010 s
b1111111110110100 q
b1111111011000000 b
b1111111011000000 !"
b11001111 a
b1111111110011010 F
b1111111110011010 U
b1111111110011010 t
b1101 r
b1111111110000000 ^
b1111111110000000 )"
b1111111101110100 f
b1111111101110100 *"
b1011 e
b1011010 m
b0 p
b0 i
b10000000 l
1(
#280000
0(
#285000
b101 V
b101 +"
b101 0"
b101 1"
0Z
b1100111 W
b1100111 ""
b1100111 '"
b1100111 ("
0&"
b10000000 ,"
b10110000000 ."
b1011 -"
b110011110000000 %"
b11001111 $"
b100001 K
b11111111111111111111111110011111 N
b110000 H
b10 I
b0 m
b1101 F
b1101 U
b1101 t
b1011010 n
b1000110 r
b10000000 ^
b10000000 )"
b1011 f
b1011 *"
b1111111110110100 G
b1111111110110100 T
b1111111110110100 s
b1011010 o
b1111111101100000 q
b11001111 b
b11001111 !"
1(
#290000
0(
#295000
b101 =
10
12
b11 I
b100000 H
b11111111111111111111111111010101 K
b11111111111111111111111110101100 N
b1111111110111010 G
b1111111110111010 T
b1111111110111010 s
b0 o
b1100111 q
b10100000 F
b10100000 U
b10100000 t
b0 n
b101 r
1(
#300000
0(
#305000
00
02
b11 =
b1111111110001111 $
b1111111110001111 5
b1001100 #
b1001100 6
1"
0E
b101 @
b1111111110001111 4
b1111111110001111 J
b1001100 3
b1001100 M
b11111111111111111111111111010101 L
b11111111111111111111111110101100 O
b0 K
b0 N
b0 H
b0 I
b101 F
b101 U
b101 t
b1100111 G
b1100111 T
b1100111 s
1(
#310000
0(
#315000
1<
0"
18
b11 @
1(
#320000
0(
#325000
1<
b11001101 /
b11001101 B
b11001101 Q
b10001100 .
b10001100 A
b10001100 P
b1 9
b1 H
b1 A"
1(
#330000
0(
#335000
1<
b0 ?
b0 D
b0 S
b10000000 >
b10000000 C
b10000000 R
b11 H
b11010 /
b11010 B
b11010 Q
b1111111101101000 .
b1111111101101000 A
b1111111101101000 P
b10 9
b10001100 _
b11001101 c
1(
#340000
0(
#345000
b100 =
1<
b10000000 ?
b10000000 D
b10000000 S
b0 >
b0 C
b0 R
b1000001 x
b1111111101110100 /
b1111111101110100 B
b1111111101110100 Q
b1111111011000000 .
b1111111011000000 A
b1111111011000000 P
b11 9
b111 H
b10000000 g
b0 j
b10001100 `
b1111111101101000 _
b11001101 d
b11010 c
b1000001 \
b1000001 u
1(
#350000
0(
#355000
b1011001 X
b1011001 w
b1011001 |
b1011001 }
0{
0<
b10110010 x
b101100100000000 z
b10000000 y
b1111 H
b1011 /
b1011 B
b1011 Q
b11001111 .
b11001111 A
b11001111 P
b0 9
b100 @
b10001100 a
b11001101 e
b10110010 \
b10110010 u
b10000000 h
b10000000 v
b0 g
b0 k
b10000000 j
b1111111101101000 `
b1111111011000000 _
b11010 d
b1111111101110100 c
1(
#360000
0(
#365000
b0 X
b0 w
b0 |
b0 }
b1100110 V
b1100110 +"
b1100110 0"
b1100110 1"
b1000110 W
b1000110 ""
b1000110 '"
b1000110 ("
b0 y
b0 z
b10110100 x
b110011010000000 ."
b11001101 -"
b100011000000000 %"
b10001100 $"
b11110 H
b10000000 i
b0 h
b0 v
b0 l
b10000000 k
b1111111011000000 `
b11001111 _
b1111111101110100 d
b1011 c
b1011001 p
b10110100 \
b10110100 u
b11001101 f
b11001101 *"
b11010 e
b10001100 b
b10001100 !"
b1111111101101000 a
1(
#370000
0(
#375000
0Z
b1111111110110100 W
b1111111110110100 ""
b1111111110110100 '"
b1001100 ("
1&"
0Y
b1111111111110011 V
b1111111111110011 +"
b1111111111110011 0"
b1101 1"
1/"
1E
b100110000000000 %"
b10011000 $"
b10000000 ,"
b110100000000 ."
b11010 -"
b11000100 x
b111100 H
b1000110 q
b1111111101101000 b
b1111111101101000 !"
b1111111011000000 a
b1100110 r
b1111111110000000 ^
b1111111110000000 )"
b11010 f
b11010 *"
b1111111101110100 e
b1011001 m
b0 p
b1111111100111100 \
b1111111100111100 u
b0 i
b10000000 l
b11001111 `
b1011 d
1(
#380000
0(
#385000
b1111111110111010 V
b1111111110111010 +"
b1111111110111010 0"
b1000110 1"
b1111111101100000 W
b1111111101100000 ""
b1111111101100000 '"
b10100000 ("
b10000000 ,"
b100011000000000 ."
b10001100 -"
b1010000000000000 %"
b101000000 $"
b1100111 K
b101 N
b111000 H
b1 I
b0 m
b1100110 F
b1100110 U
b1100110 t
b1011001 n
b1111111111110011 r
b10000000 ^
b10000000 )"
b1111111101110100 f
b1111111101110100 *"
b1011 e
b1000110 G
b1000110 T
b1000110 s
b1011001 o
b1111111110110100 q
b1111111011000000 b
b1111111011000000 !"
b11001111 a
1(
#390000
0(
#395000
0Z
b1100111 W
b1100111 ""
b1100111 '"
b1100111 ("
0&"
0Y
b101 V
b101 +"
b101 0"
b101 1"
0/"
b110011110000000 %"
b11001111 $"
b10110000000 ."
b1011 -"
b10 I
b110000 H
b10101101 K
b1101011 N
b1101 G
b1101 T
b1101 s
b0 o
b1111111101100000 q
b11001111 b
b11001111 !"
b1001100 F
b1001100 U
b1001100 t
b0 n
b1111111110111010 r
b1011 f
b1011 *"
1(
#400000
0(
#405000
b101 =
10
12
b10111010 K
b10110111 N
b100000 H
b11 I
b1111111110111010 F
b1111111110111010 U
b1111111110111010 t
b101 r
b1111111101100000 G
b1111111101100000 T
b1111111101100000 s
b1100111 q
1(
#410000
0(
#415000
00
02
0E
b11 =
b11010 $
b11010 5
b1110001 #
b1110001 6
1"
b0 I
b0 H
b10111010 L
b10110111 O
b0 K
b0 N
b11010 4
b11010 J
b1110001 3
b1110001 M
b101 @
b1100111 G
b1100111 T
b1100111 s
b101 F
b101 U
b101 t
1(
#420000
0(
#425000
1<
0"
b11101 /
b11101 B
b11101 Q
b1111111111011111 .
b1111111111011111 A
b1111111111011111 P
b1 7
08
b11 @
1(
#430000
0(
#435000
1<
b1111111110000000 ?
b1111111110000000 D
b1111111110000000 S
b1 H
b101 /
b101 B
b101 Q
b1111111111100011 .
b1111111111100011 A
b1111111111100011 P
b1 9
b1111111111011111 _
b11101 c
b1 @"
b0 A"
1(
#440000
0(
#445000
1<
b10000000 ?
b10000000 D
b10000000 S
b111110 x
b1111111110101011 /
b1111111110101011 B
b1111111110101011 Q
b1111111110110000 .
b1111111110110000 A
b1111111110110000 P
b10 9
b11 H
b1111111110000000 j
b1111111111011111 `
b1111111111100011 _
b11101 d
b101 c
b111110 \
b111110 u
1(
#450000
0(
#455000
b100 =
1<
b0 ?
b0 D
b0 S
b10000000 >
b10000000 C
b10000000 R
b100010 x
b111 H
b10000 /
b10000 B
b10000 Q
b11001000 .
b11001000 A
b11001000 P
b11 9
b1111111111011111 a
b11101 e
b100010 \
b100010 u
b1111111110000000 k
b10000000 j
b1111111111100011 `
b1111111110110000 _
b101 d
b1111111110101011 c
1(
#460000
0(
#465000
b1110 V
b1110 +"
b1110 0"
b1110 1"
0Z
b1111111111110000 W
b1111111111110000 ""
b1111111111110000 '"
b10000 ("
1&"
b10000000 ?
b10000000 D
b10000000 S
b0 >
b0 C
b0 R
0<
b101 x
b111010000000 ."
b11101 -"
b1000010000000 %"
b100001 $"
b11101 /
b11101 B
b11101 Q
b1111111111011111 .
b1111111111011111 A
b1111111111011111 P
b0 9
b100 @
b1111 H
b10000000 g
b1111111110000000 l
b10000000 k
b0 j
b1111111110110000 `
b11001000 _
b1111111110101011 d
b10000 c
b1111111111111011 \
b1111111111111011 u
b11101 f
b11101 *"
b101 e
b1111111111011111 b
b1111111111011111 !"
b1111111111100011 a
1(
#470000
0(
#475000
0Z
b1110 W
b1110 ""
b1110 '"
b1110 ("
0&"
0Y
b1111111111111110 V
b1111111111111110 +"
b1111111111111110 0"
b10 1"
1/"
b1111111110100100 X
b1111111110100100 w
b1111111110100100 |
b1011100 }
1{
b10000000 #"
b111010000000 %"
b11101 $"
b10000000 ,"
b1010000000 ."
b101 -"
b10111000 x
b101110000000000 z
b10000000 y
b11110 H
b1111111111110000 q
b1111111110000000 ]
b1111111110000000 ~
b1111111111100011 b
b1111111111100011 !"
b1111111110110000 a
b1110 r
b1111111110000000 ^
b1111111110000000 )"
b101 f
b101 *"
b1111111110101011 e
b1111111101001000 \
b1111111101001000 u
b10000000 h
b10000000 v
b0 g
b10000000 l
b0 k
b10000000 j
b11001000 `
b1111111111011111 _
b10000 d
b11101 c
1(
#480000
0(
#485000
b0 X
b0 w
b0 |
b0 }
0{
b1111111111010110 V
b1111111111010110 +"
b1111111111010110 0"
b101010 1"
0Z
b1111111111011000 W
b1111111111011000 ""
b1111111111011000 '"
b101000 ("
1&"
1E
b0 y
b0 z
b111110 x
b10000000 ,"
b10101010000000 ."
b1010101 -"
b10000000 #"
b10100000000000 %"
b1010000 $"
b111100 H
b10000000 i
b0 h
b0 v
b0 l
b10000000 k
b1111111111011111 `
b11101 d
b1111111110100100 p
b111110 \
b111110 u
b1110 F
b1110 U
b1110 t
b1111111111111110 r
b10000000 ^
b10000000 )"
b1111111110101011 f
b1111111110101011 *"
b10000 e
b1111111111110000 G
b1111111111110000 T
b1111111111110000 s
b1110 q
b10000000 ]
b10000000 ~
b1111111110110000 b
b1111111110110000 !"
b11001000 a
1(
#490000
0(
#495000
0Z
b1100100 W
b1100100 ""
b1100100 '"
b1100100 ("
0&"
b1111111111111000 V
b1111111111111000 +"
b1111111111111000 0"
b1000 1"
b110010000000000 %"
b11001000 $"
b10000000 ,"
b100000000000 ."
b10000 -"
b1 I
b111000 H
b11111111111111111111111111110000 K
b1110 N
b1110 G
b1110 T
b1110 s
b1111111111011000 q
b11001000 b
b11001000 !"
b1111111111011111 a
b1111111111111110 F
b1111111111111110 U
b1111111111111110 t
b1111111111010110 r
b1111111110000000 ^
b1111111110000000 )"
b10000 f
b10000 *"
b11101 e
b1111111110100100 m
b0 p
b0 i
b10000000 l
1(
#500000
0(
#505000
0Y
b1110 V
b1110 +"
b1110 0"
b1110 1"
0/"
0Z
b1111111111110000 W
b1111111111110000 ""
b1111111111110000 '"
b10000 ("
1&"
b10000000 ,"
b111010000000 ."
b11101 -"
b1000010000000 %"
b100001 $"
b11111111111111111111111111111110 K
b1100 N
b110000 H
b10 I
b0 m
b1111111111010110 F
b1111111111010110 U
b1111111111010110 t
b1111111110100100 n
b1111111111111000 r
b10000000 ^
b10000000 )"
b11101 f
b11101 *"
b1111111111011000 G
b1111111111011000 T
b1111111111011000 s
b1111111110100100 o
b1100100 q
b1111111111011111 b
b1111111111011111 !"
1(
#510000
0(
#515000
b101 =
10
12
b11 I
b100000 H
b11111111111111111111111111010110 K
b11111111111111111111111111100010 N
b1000 G
b1000 T
b1000 s
b0 o
b1111111111110000 q
b1111111110011100 F
b1111111110011100 U
b1111111110011100 t
b0 n
b1110 r
1(
#520000
0(
#525000
00
02
b11 =
b1111111111011110 $
b1111111111011110 5
b1111111101111110 #
b1111111101111110 6
1"
0E
b101 @
b1111111111011110 4
b1111111111011110 J
b1111111101111110 3
b1111111101111110 M
b11111111111111111111111111010110 L
b11111111111111111111111111100010 O
b0 K
b0 N
b0 H
b0 I
b1110 F
b1110 U
b1110 t
b1111111111110000 G
b1111111111110000 T
b1111111111110000 s
1(
#530000
0(
#535000
1<
0"
18
b11 @
1(
#540000
0(
#545000
1<
b101 /
b101 B
b101 Q
b1111111111100011 .
b1111111111100011 A
b1111111111100011 P
b1 9
b1 H
b1 A"
1(
#550000
0(
#555000
1<
b0 ?
b0 D
b0 S
b10000000 >
b10000000 C
b10000000 R
b11 H
b1111111110101011 /
b1111111110101011 B
b1111111110101011 Q
b1111111110110000 .
b1111111110110000 A
b1111111110110000 P
b10 9
b1111111111100011 _
b101 c
1(
#560000
0(
#565000
b100 =
1<
b10000000 ?
b10000000 D
b10000000 S
b0 >
b0 C
b0 R
b100010 x
b10000 /
b10000 B
b10000 Q
b11001000 .
b11001000 A
b11001000 P
b11 9
b111 H
b10000000 g
b0 j
b1111111111100011 `
b1111111110110000 _
b101 d
b1111111110101011 c
b100010 \
b100010 u
1(
#570000
0(
#575000
0[
b1111111111111110 X
b1111111111111110 w
b1111111111111110 |
b10 }
1{
0<
b101 x
b1010000000 z
b10000000 y
b1111 H
b11101 /
b11101 B
b11101 Q
b1111111111011111 .
b1111111111011111 A
b1111111111011111 P
b0 9
b100 @
b1111111111100011 a
b101 e
b1111111111111011 \
b1111111111111011 u
b10000000 h
b10000000 v
b0 g
b0 k
b10000000 j
b1111111110110000 `
b11001000 _
b1111111110101011 d
b10000 c
1(
#580000
0(
#585000
b0 X
b0 w
b0 |
b0 }
b10 V
b10 +"
b10 0"
b10 1"
b1111111111110010 W
b1111111111110010 ""
b1111111111110010 '"
b1110 ("
b0 y
b0 z
b10111000 x
b1010000000 ."
b101 -"
b111010000000 %"
b11101 $"
b11110 H
b10000000 i
b0 h
b0 v
b0 l
b10000000 k
b11001000 `
b1111111111011111 _
b10000 d
b11101 c
b1111111111111110 p
b1111111101001000 \
b1111111101001000 u
b101 f
b101 *"
b1111111110101011 e
b1111111111100011 b
b1111111111100011 !"
b1111111110110000 a
1(
#590000
0(
#595000
b1111111111011000 W
b1111111111011000 ""
b1111111111011000 '"
b101000 ("
b101010 V
b101010 +"
b101010 0"
b101010 1"
1E
b10100000000000 %"
b1010000 $"
b10000000 ,"
b10101010000000 ."
b1010101 -"
b111110 x
b111100 H
b1111111111110010 q
b1111111110110000 b
b1111111110110000 !"
b11001000 a
b10 r
b1111111110000000 ^
b1111111110000000 )"
b1111111110101011 f
b1111111110101011 *"
b10000 e
b1111111111111110 m
b0 p
b111110 \
b111110 u
b0 i
b10000000 l
b1111111111011111 `
b11101 d
1(
#600000
0(
#605000
b1000 V
b1000 +"
b1000 0"
b1000 1"
0Z
b1100100 W
b1100100 ""
b1100100 '"
b1100100 ("
0&"
b10000000 ,"
b100000000000 ."
b10000 -"
b110010000000000 %"
b11001000 $"
b11111111111111111111111111110000 K
b1110 N
b111000 H
b1 I
b0 m
b10 F
b10 U
b10 t
b1111111111111110 n
b101010 r
b10000000 ^
b10000000 )"
b10000 f
b10000 *"
b11101 e
b1111111111110010 G
b1111111111110010 T
b1111111111110010 s
b1111111111111110 o
b1111111111011000 q
b11001000 b
b11001000 !"
b1111111111011111 a
1(
#610000
0(
#615000
0Z
b1111111111110000 W
b1111111111110000 ""
b1111111111110000 '"
b10000 ("
1&"
b1110 V
b1110 +"
b1110 0"
b1110 1"
b1000010000000 %"
b100001 $"
b111010000000 ."
b11101 -"
b10 I
b110000 H
b11111111111111111111111111100010 K
b10000 N
b1111111111010110 G
b1111111111010110 T
b1111111111010110 s
b0 o
b1100100 q
b1111111111011111 b
b1111111111011111 !"
b101000 F
b101000 U
b101000 t
b0 n
b1000 r
b11101 f
b11101 *"
1(
#620000
0(
